Lab2/lab2_template/waveform.vcd
$version Generated by VerilatedVcd $end
$timescale 1s $end

 $scope module TOP $end
  $var wire  1 _ clk $end
  $var wire 32 a r[0] [31:0] $end
  $var wire 32 k r[10] [31:0] $end
  $var wire 32 l r[11] [31:0] $end
  $var wire 32 m r[12] [31:0] $end
  $var wire 32 n r[13] [31:0] $end
  $var wire 32 o r[14] [31:0] $end
  $var wire 32 p r[15] [31:0] $end
  $var wire 32 q r[16] [31:0] $end
  $var wire 32 r r[17] [31:0] $end
  $var wire 32 s r[18] [31:0] $end
  $var wire 32 t r[19] [31:0] $end
  $var wire 32 b r[1] [31:0] $end
  $var wire 32 u r[20] [31:0] $end
  $var wire 32 v r[21] [31:0] $end
  $var wire 32 w r[22] [31:0] $end
  $var wire 32 x r[23] [31:0] $end
  $var wire 32 y r[24] [31:0] $end
  $var wire 32 z r[25] [31:0] $end
  $var wire 32 { r[26] [31:0] $end
  $var wire 32 | r[27] [31:0] $end
  $var wire 32 } r[28] [31:0] $end
  $var wire 32 ~ r[29] [31:0] $end
  $var wire 32 c r[2] [31:0] $end
  $var wire 32 !! r[30] [31:0] $end
  $var wire 32 "! r[31] [31:0] $end
  $var wire 32 d r[3] [31:0] $end
  $var wire 32 e r[4] [31:0] $end
  $var wire 32 f r[5] [31:0] $end
  $var wire 32 g r[6] [31:0] $end
  $var wire 32 h r[7] [31:0] $end
  $var wire 32 i r[8] [31:0] $end
  $var wire 32 j r[9] [31:0] $end
  $var wire  1 ` start $end
  $scope module SingleCycleCPU $end
   $var wire  4 0 ALUCtl [3:0] $end
   $var wire  2 3 ALUOp [1:0] $end
   $var wire 32 \ ALUOut [31:0] $end
   $var wire  1 6 ALUSrc $end
   $var wire 32 ( ALUSrcB [31:0] $end
   $var wire  1 8 BrEq $end
   $var wire  1 9 BrLT $end
   $var wire 32 * PCPlus4 [31:0] $end
   $var wire  2 4 PCSel [1:0] $end
   $var wire 32 ) branchAddr [31:0] $end
   $var wire 32 + branchTarget [31:0] $end
   $var wire  1 _ clk $end
   $var wire  3 1 funct3 [2:0] $end
   $var wire  1 : funct7 $end
   $var wire 32 ' imm [31:0] $end
   $var wire 32 $ inst [31:0] $end
   $var wire 32 #! memData [31:0] $end
   $var wire  1 ] memRead $end
   $var wire  1 5 memWrite $end
   $var wire  2 2 memtoReg [1:0] $end
   $var wire  7 , opcode [6:0] $end
   $var wire 32 [ pc_i [31:0] $end
   $var wire 32 # pc_o [31:0] $end
   $var wire 32 a r[0] [31:0] $end
   $var wire 32 k r[10] [31:0] $end
   $var wire 32 l r[11] [31:0] $end
   $var wire 32 m r[12] [31:0] $end
   $var wire 32 n r[13] [31:0] $end
   $var wire 32 o r[14] [31:0] $end
   $var wire 32 p r[15] [31:0] $end
   $var wire 32 q r[16] [31:0] $end
   $var wire 32 r r[17] [31:0] $end
   $var wire 32 s r[18] [31:0] $end
   $var wire 32 t r[19] [31:0] $end
   $var wire 32 b r[1] [31:0] $end
   $var wire 32 u r[20] [31:0] $end
   $var wire 32 v r[21] [31:0] $end
   $var wire 32 w r[22] [31:0] $end
   $var wire 32 x r[23] [31:0] $end
   $var wire 32 y r[24] [31:0] $end
   $var wire 32 z r[25] [31:0] $end
   $var wire 32 { r[26] [31:0] $end
   $var wire 32 | r[27] [31:0] $end
   $var wire 32 } r[28] [31:0] $end
   $var wire 32 ~ r[29] [31:0] $end
   $var wire 32 c r[2] [31:0] $end
   $var wire 32 !! r[30] [31:0] $end
   $var wire 32 "! r[31] [31:0] $end
   $var wire 32 d r[3] [31:0] $end
   $var wire 32 e r[4] [31:0] $end
   $var wire 32 f r[5] [31:0] $end
   $var wire 32 g r[6] [31:0] $end
   $var wire 32 h r[7] [31:0] $end
   $var wire 32 i r[8] [31:0] $end
   $var wire 32 j r[9] [31:0] $end
   $var wire  5 - rd [4:0] $end
   $var wire 32 % readData1 [31:0] $end
   $var wire 32 & readData2 [31:0] $end
   $var wire  1 7 regWrite $end
   $var wire  5 . rs1 [4:0] $end
   $var wire  5 / rs2 [4:0] $end
   $var wire  1 ` rst $end
   $var wire  1 ` start $end
   $var wire 32 $! writeData [31:0] $end
   $var wire  1 ^ zero $end
   $scope module m_ALU $end
    $var wire 32 % A [31:0] $end
    $var wire 32 \ ALUOut [31:0] $end
    $var wire  4 0 ALUctl [3:0] $end
    $var wire 32 ( B [31:0] $end
    $var wire  1 ^ zero $end
   $upscope $end
   $scope module m_ALUCtrl $end
    $var wire  4 0 ALUCtl [3:0] $end
    $var wire  2 3 ALUOp [1:0] $end
    $var wire  3 1 funct3 [2:0] $end
    $var wire  1 : funct7 $end
   $upscope $end
   $scope module m_Adder_1 $end
    $var wire 32 # a [31:0] $end
    $var wire 32 %! b [31:0] $end
    $var wire 32 * sum [31:0] $end
   $upscope $end
   $scope module m_Adder_2 $end
    $var wire 32 # a [31:0] $end
    $var wire 32 ) b [31:0] $end
    $var wire 32 + sum [31:0] $end
   $upscope $end
   $scope module m_BranchComp $end
    $var wire 32 % A [31:0] $end
    $var wire 32 & B [31:0] $end
    $var wire  1 8 BrEq $end
    $var wire  1 9 BrLT $end
   $upscope $end
   $scope module m_Control $end
    $var wire  2 3 ALUOp [1:0] $end
    $var wire  1 6 ALUSrc $end
    $var wire  1 8 BrEq $end
    $var wire  1 9 BrLT $end
    $var wire  2 4 PCSel [1:0] $end
    $var wire  3 1 funct3 [2:0] $end
    $var wire  1 ] memRead $end
    $var wire  1 5 memWrite $end
    $var wire  2 2 memtoReg [1:0] $end
    $var wire  7 , opcode [6:0] $end
    $var wire  1 7 regWrite $end
   $upscope $end
   $scope module m_DataMemory $end
    $var wire 32 \ address [31:0] $end
    $var wire  1 _ clk $end
    $var wire  1 ] memRead $end
    $var wire  1 5 memWrite $end
    $var wire 32 #! readData [31:0] $end
    $var wire  1 ` rst $end
    $var wire 32 & writeData [31:0] $end
   $upscope $end
   $scope module m_ImmGen $end
    $var wire 32 ' imm [31:0] $end
    $var wire 32 $ inst [31:0] $end
   $upscope $end
   $scope module m_InstMem $end
    $var wire 32 $ inst [31:0] $end
    $var wire 32 # readAddr [31:0] $end
   $upscope $end
   $scope module m_Mux_ALU $end
    $var wire 32 ( out [31:0] $end
    $var wire 32 & s0 [31:0] $end
    $var wire 32 ' s1 [31:0] $end
    $var wire  1 6 sel $end
    $var wire 32 &! size [31:0] $end
   $upscope $end
   $scope module m_Mux_PC $end
    $var wire 32 [ out [31:0] $end
    $var wire 32 * s0 [31:0] $end
    $var wire 32 + s1 [31:0] $end
    $var wire 32 \ s2 [31:0] $end
    $var wire  2 4 sel [1:0] $end
    $var wire 32 &! size [31:0] $end
   $upscope $end
   $scope module m_Mux_WriteData $end
    $var wire 32 $! out [31:0] $end
    $var wire 32 \ s0 [31:0] $end
    $var wire 32 #! s1 [31:0] $end
    $var wire 32 * s2 [31:0] $end
    $var wire  2 2 sel [1:0] $end
    $var wire 32 &! size [31:0] $end
   $upscope $end
   $scope module m_PC $end
    $var wire  1 _ clk $end
    $var wire 32 [ pc_i [31:0] $end
    $var wire 32 # pc_o [31:0] $end
    $var wire  1 ` rst $end
   $upscope $end
   $scope module m_Register $end
    $var wire  1 _ clk $end
    $var wire 32 % readData1 [31:0] $end
    $var wire 32 & readData2 [31:0] $end
    $var wire  5 . readReg1 [4:0] $end
    $var wire  5 / readReg2 [4:0] $end
    $var wire  1 7 regWrite $end
    $var wire 32 ; regs[0] [31:0] $end
    $var wire 32 E regs[10] [31:0] $end
    $var wire 32 F regs[11] [31:0] $end
    $var wire 32 G regs[12] [31:0] $end
    $var wire 32 H regs[13] [31:0] $end
    $var wire 32 I regs[14] [31:0] $end
    $var wire 32 J regs[15] [31:0] $end
    $var wire 32 K regs[16] [31:0] $end
    $var wire 32 L regs[17] [31:0] $end
    $var wire 32 M regs[18] [31:0] $end
    $var wire 32 N regs[19] [31:0] $end
    $var wire 32 < regs[1] [31:0] $end
    $var wire 32 O regs[20] [31:0] $end
    $var wire 32 P regs[21] [31:0] $end
    $var wire 32 Q regs[22] [31:0] $end
    $var wire 32 R regs[23] [31:0] $end
    $var wire 32 S regs[24] [31:0] $end
    $var wire 32 T regs[25] [31:0] $end
    $var wire 32 U regs[26] [31:0] $end
    $var wire 32 V regs[27] [31:0] $end
    $var wire 32 W regs[28] [31:0] $end
    $var wire 32 X regs[29] [31:0] $end
    $var wire 32 = regs[2] [31:0] $end
    $var wire 32 Y regs[30] [31:0] $end
    $var wire 32 Z regs[31] [31:0] $end
    $var wire 32 > regs[3] [31:0] $end
    $var wire 32 ? regs[4] [31:0] $end
    $var wire 32 @ regs[5] [31:0] $end
    $var wire 32 A regs[6] [31:0] $end
    $var wire 32 B regs[7] [31:0] $end
    $var wire 32 C regs[8] [31:0] $end
    $var wire 32 D regs[9] [31:0] $end
    $var wire  1 ` rst $end
    $var wire 32 $! writeData [31:0] $end
    $var wire  5 - writeReg [4:0] $end
   $upscope $end
   $scope module m_ShiftLeftOne $end
    $var wire 32 ' i [31:0] $end
    $var wire 32 ) o [31:0] $end
   $upscope $end
  $upscope $end
 $upscope $end
$enddefinitions $end


#0
b00000000000000000000000000000000 #
b00000000000000000000000000010011 $
b00000000000000000000000000000000 %
b00000000000000000000000000000000 &
b00000000000000000000000000000000 '
b00000000000000000000000000000000 (
b00000000000000000000000000000000 )
b00000000000000000000000000000100 *
b00000000000000000000000000000000 +
b0010011 ,
b00000 -
b00000 .
b00000 /
b0010 0
b000 1
b00 2
b11 3
b00 4
05
16
17
18
09
0:
b00000000000000000000000000000000 ;
b00000000000000000000000000000000 <
b00000000000000000000000000000000 =
b00000000000000000000000000000000 >
b00000000000000000000000000000000 ?
b00000000000000000000000000000000 @
b00000000000000000000000000000000 A
b00000000000000000000000000000000 B
b00000000000000000000000000000000 C
b00000000000000000000000000000000 D
b00000000000000000000000000000000 E
b00000000000000000000000000000000 F
b00000000000000000000000000000000 G
b00000000000000000000000000000000 H
b00000000000000000000000000000000 I
b00000000000000000000000000000000 J
b00000000000000000000000000000000 K
b00000000000000000000000000000000 L
b00000000000000000000000000000000 M
b00000000000000000000000000000000 N
b00000000000000000000000000000000 O
b00000000000000000000000000000000 P
b00000000000000000000000000000000 Q
b00000000000000000000000000000000 R
b00000000000000000000000000000000 S
b00000000000000000000000000000000 T
b00000000000000000000000000000000 U
b00000000000000000000000000000000 V
b00000000000000000000000000000000 W
b00000000000000000000000000000000 X
b00000000000000000000000000000000 Y
b00000000000000000000000000000000 Z
b00000000000000000000000000000100 [
b00000000000000000000000000000000 \
0]
1^
0_
1`
b00000000000000000000000000000000 a
b00000000000000000000000000000000 b
b00000000000000000000000000000000 c
b00000000000000000000000000000000 d
b00000000000000000000000000000000 e
b00000000000000000000000000000000 f
b00000000000000000000000000000000 g
b00000000000000000000000000000000 h
b00000000000000000000000000000000 i
b00000000000000000000000000000000 j
b00000000000000000000000000000000 k
b00000000000000000000000000000000 l
b00000000000000000000000000000000 m
b00000000000000000000000000000000 n
b00000000000000000000000000000000 o
b00000000000000000000000000000000 p
b00000000000000000000000000000000 q
b00000000000000000000000000000000 r
b00000000000000000000000000000000 s
b00000000000000000000000000000000 t
b00000000000000000000000000000000 u
b00000000000000000000000000000000 v
b00000000000000000000000000000000 w
b00000000000000000000000000000000 x
b00000000000000000000000000000000 y
b00000000000000000000000000000000 z
b00000000000000000000000000000000 {
b00000000000000000000000000000000 |
b00000000000000000000000000000000 }
b00000000000000000000000000000000 ~
b00000000000000000000000000000000 !!
b00000000000000000000000000000000 "!
b00000000000000000000000000000000 #!
b00000000000000000000000000000000 $!
b00000000000000000000000000000100 %!
b00000000000000000000000000100000 &!
#1
b00000000000000000000000010000000 =
1_
0`
b00000000000000000000000010000000 c
#2
b00000000000000000000000000000100 #
b00000000100000000000010001101111 $
b00000000000000000000000000000100 '
b00000000000000000000000000001000 )
b00000000000000000000000000001000 *
b00000000000000000000000000001100 +
b1101111 ,
b01000 -
b01000 /
b10 2
b00 3
b01 4
06
b00000000000000000000000000001100 [
0_
1`
b00000000000000000000000000001000 $!
#3
1_
#4
b00000000000000000000000000001100 #
b00000000001000000000010110010011 $
b00000000000000000000000010000000 &
b00000000000000000000000000000010 '
b00000000000000000000000000000010 (
b00000000000000000000000000000100 )
b00000000000000000000000000010000 *
b00000000000000000000000000010000 +
b0010011 ,
b01011 -
b00010 /
b00 2
b11 3
b00 4
16
08
19
b00000000000000000000000000001000 C
b00000000000000000000000000010000 [
b00000000000000000000000000000010 \
0^
0_
b00000000000000000000000000001000 i
b00000000000000000000000000000010 $!
#5
1_
#6
b00000000000000000000000000010000 #
b00000000000000000000000000000000 $
b00000000000000000000000000000000 &
b00000000000000000000000000000000 '
b00000000000000000000000000000000 (
b00000000000000000000000000000000 )
b00000000000000000000000000010100 *
b0000000 ,
b00000 -
b00000 /
b00 3
06
07
18
09
b00000000000000000000000000000010 F
b00000000000000000000000000010100 [
b00000000000000000000000000000000 \
1^
0_
b00000000000000000000000000000010 l
b00000000000000000000000000000000 $!
#7
1_
#8
b00000000000000000000000000010100 #
b00000000000000000000000000011000 *
b00000000000000000000000000010100 +
b00000000000000000000000000011000 [
0_
#9
1_
#10
b00000000000000000000000000011000 #
b00000000000000000000000000011100 *
b00000000000000000000000000011000 +
b00000000000000000000000000011100 [
0_
#11
1_
#12
b00000000000000000000000000011100 #
b00000000000000000000000000100000 *
b00000000000000000000000000011100 +
b00000000000000000000000000100000 [
0_
#13
1_
#14
b00000000000000000000000000100000 #
b00000000000000000000000000100100 *
b00000000000000000000000000100000 +
b00000000000000000000000000100100 [
0_
#15
1_
#16
b00000000000000000000000000100100 #
b00000000000000000000000000101000 *
b00000000000000000000000000100100 +
b00000000000000000000000000101000 [
0_
#17
1_
#18
b00000000000000000000000000101000 #
b00000000000000000000000000101100 *
b00000000000000000000000000101000 +
b00000000000000000000000000101100 [
0_
#19
1_
#20
b00000000000000000000000000101100 #
b00000000000000000000000000110000 *
b00000000000000000000000000101100 +
b00000000000000000000000000110000 [
0_
#21
1_
#22
b00000000000000000000000000110000 #
b00000000000000000000000000110100 *
b00000000000000000000000000110000 +
b00000000000000000000000000110100 [
0_
#23
1_
#24
b00000000000000000000000000110100 #
b00000000000000000000000000111000 *
b00000000000000000000000000110100 +
b00000000000000000000000000111000 [
0_
#25
1_
#26
b00000000000000000000000000111000 #
b00000000000000000000000000111100 *
b00000000000000000000000000111000 +
b00000000000000000000000000111100 [
0_
#27
1_
#28
b00000000000000000000000000111100 #
b00000000000000000000000001000000 *
b00000000000000000000000000111100 +
b00000000000000000000000001000000 [
0_
#29
1_
#30
b00000000000000000000000001000000 #
b00000000000000000000000001000100 *
b00000000000000000000000001000000 +
b00000000000000000000000001000100 [
0_
#31
1_
#32
b00000000000000000000000001000100 #
b00000000000000000000000001001000 *
b00000000000000000000000001000100 +
b00000000000000000000000001001000 [
0_
#33
1_
#34
b00000000000000000000000001001000 #
b00000000000000000000000001001100 *
b00000000000000000000000001001000 +
b00000000000000000000000001001100 [
0_
#35
1_
#36
b00000000000000000000000001001100 #
b00000000000000000000000001010000 *
b00000000000000000000000001001100 +
b00000000000000000000000001010000 [
0_
#37
1_
#38
b00000000000000000000000001010000 #
b00000000000000000000000001010100 *
b00000000000000000000000001010000 +
b00000000000000000000000001010100 [
0_
#39
1_
#40
b00000000000000000000000001010100 #
b00000000000000000000000001011000 *
b00000000000000000000000001010100 +
b00000000000000000000000001011000 [
0_
#41
1_
#42
b00000000000000000000000001011000 #
b00000000000000000000000001011100 *
b00000000000000000000000001011000 +
b00000000000000000000000001011100 [
0_
#43
1_
#44
b00000000000000000000000001011100 #
b00000000000000000000000001100000 *
b00000000000000000000000001011100 +
b00000000000000000000000001100000 [
0_
#45
1_
#46
b00000000000000000000000001100000 #
b00000000000000000000000001100100 *
b00000000000000000000000001100000 +
b00000000000000000000000001100100 [
0_
#47
1_
#48
b00000000000000000000000001100100 #
b00000000000000000000000001101000 *
b00000000000000000000000001100100 +
b00000000000000000000000001101000 [
0_
#49
1_
#50
b00000000000000000000000001101000 #
b00000000000000000000000001101100 *
b00000000000000000000000001101000 +
b00000000000000000000000001101100 [
0_
#51
1_
#52
b00000000000000000000000001101100 #
b00000000000000000000000001110000 *
b00000000000000000000000001101100 +
b00000000000000000000000001110000 [
0_
#53
1_
#54
b00000000000000000000000001110000 #
b00000000000000000000000001110100 *
b00000000000000000000000001110000 +
b00000000000000000000000001110100 [
0_
#55
1_
#56
b00000000000000000000000001110100 #
b00000000000000000000000001111000 *
b00000000000000000000000001110100 +
b00000000000000000000000001111000 [
0_
#57
1_
#58
b00000000000000000000000001111000 #
b00000000000000000000000001111100 *
b00000000000000000000000001111000 +
b00000000000000000000000001111100 [
0_
#59
1_
#60
b00000000000000000000000001111100 #
b00000000000000000000000010000000 *
b00000000000000000000000001111100 +
b00000000000000000000000010000000 [
0_
#61
1_
#62
b00000000000000000000000010000000 #
b00000000000000000000000010000100 *
b00000000000000000000000010000000 +
b00000000000000000000000010000100 [
0_
#63
1_
#64
b00000000000000000000000010000100 #
b00000000000000000000000010001000 *
b00000000000000000000000010000100 +
b00000000000000000000000010001000 [
0_
#65
1_
#66
b00000000000000000000000010001000 #
b00000000000000000000000010001100 *
b00000000000000000000000010001000 +
b00000000000000000000000010001100 [
0_
#67
1_
#68
b00000000000000000000000010001100 #
b00000000000000000000000010010000 *
b00000000000000000000000010001100 +
b00000000000000000000000010010000 [
0_
#69
1_
#70
b00000000000000000000000010010000 #
b00000000000000000000000010010100 *
b00000000000000000000000010010000 +
b00000000000000000000000010010100 [
0_
#71
1_
#72
b00000000000000000000000010010100 #
b00000000000000000000000010011000 *
b00000000000000000000000010010100 +
b00000000000000000000000010011000 [
0_
#73
1_
#74
b00000000000000000000000010011000 #
b00000000000000000000000010011100 *
b00000000000000000000000010011000 +
b00000000000000000000000010011100 [
0_
#75
1_
#76
b00000000000000000000000010011100 #
b00000000000000000000000010100000 *
b00000000000000000000000010011100 +
b00000000000000000000000010100000 [
0_
#77
1_
#78
b00000000000000000000000010100000 #
b00000000000000000000000010100100 *
b00000000000000000000000010100000 +
b00000000000000000000000010100100 [
0_
#79
1_
#80
b00000000000000000000000010100100 #
b00000000000000000000000010101000 *
b00000000000000000000000010100100 +
b00000000000000000000000010101000 [
0_
#81
1_
#82
b00000000000000000000000010101000 #
b00000000000000000000000010101100 *
b00000000000000000000000010101000 +
b00000000000000000000000010101100 [
0_
#83
1_
#84
b00000000000000000000000010101100 #
b00000000000000000000000010110000 *
b00000000000000000000000010101100 +
b00000000000000000000000010110000 [
0_
#85
1_
#86
b00000000000000000000000010110000 #
b00000000000000000000000010110100 *
b00000000000000000000000010110000 +
b00000000000000000000000010110100 [
0_
#87
1_
#88
b00000000000000000000000010110100 #
b00000000000000000000000010111000 *
b00000000000000000000000010110100 +
b00000000000000000000000010111000 [
0_
#89
1_
#90
b00000000000000000000000010111000 #
b00000000000000000000000010111100 *
b00000000000000000000000010111000 +
b00000000000000000000000010111100 [
0_
#91
1_
#92
b00000000000000000000000010111100 #
b00000000000000000000000011000000 *
b00000000000000000000000010111100 +
b00000000000000000000000011000000 [
0_
#93
1_
#94
b00000000000000000000000011000000 #
b00000000000000000000000011000100 *
b00000000000000000000000011000000 +
b00000000000000000000000011000100 [
0_
#95
1_
#96
b00000000000000000000000011000100 #
b00000000000000000000000011001000 *
b00000000000000000000000011000100 +
b00000000000000000000000011001000 [
0_
#97
1_
#98
b00000000000000000000000011001000 #
b00000000000000000000000011001100 *
b00000000000000000000000011001000 +
b00000000000000000000000011001100 [
0_
#99
1_
#100
b00000000000000000000000011001100 #
b00000000000000000000000011010000 *
b00000000000000000000000011001100 +
b00000000000000000000000011010000 [
0_
#101
1_
#102
b00000000000000000000000011010000 #
b00000000000000000000000011010100 *
b00000000000000000000000011010000 +
b00000000000000000000000011010100 [
0_
#103
1_
#104
b00000000000000000000000011010100 #
b00000000000000000000000011011000 *
b00000000000000000000000011010100 +
b00000000000000000000000011011000 [
0_
#105
1_
#106
b00000000000000000000000011011000 #
b00000000000000000000000011011100 *
b00000000000000000000000011011000 +
b00000000000000000000000011011100 [
0_
#107
1_
#108
b00000000000000000000000011011100 #
b00000000000000000000000011100000 *
b00000000000000000000000011011100 +
b00000000000000000000000011100000 [
0_
#109
1_
#110
b00000000000000000000000011100000 #
b00000000000000000000000011100100 *
b00000000000000000000000011100000 +
b00000000000000000000000011100100 [
0_
#111
1_
#112
b00000000000000000000000011100100 #
b00000000000000000000000011101000 *
b00000000000000000000000011100100 +
b00000000000000000000000011101000 [
0_
#113
1_
#114
b00000000000000000000000011101000 #
b00000000000000000000000011101100 *
b00000000000000000000000011101000 +
b00000000000000000000000011101100 [
0_
#115
1_
#116
b00000000000000000000000011101100 #
b00000000000000000000000011110000 *
b00000000000000000000000011101100 +
b00000000000000000000000011110000 [
0_
#117
1_
#118
b00000000000000000000000011110000 #
b00000000000000000000000011110100 *
b00000000000000000000000011110000 +
b00000000000000000000000011110100 [
0_
#119
1_
#120
b00000000000000000000000011110100 #
b00000000000000000000000011111000 *
b00000000000000000000000011110100 +
b00000000000000000000000011111000 [
0_
#121
1_
#122
b00000000000000000000000011111000 #
b00000000000000000000000011111100 *
b00000000000000000000000011111000 +
b00000000000000000000000011111100 [
0_
#123
1_
#124
b00000000000000000000000011111100 #
b00000000000000000000000100000000 *
b00000000000000000000000011111100 +
b00000000000000000000000100000000 [
0_
#125
1_
#126
b00000000000000000000000100000000 #
b00000000000000000000000100000100 *
b00000000000000000000000100000000 +
b00000000000000000000000100000100 [
0_
#127
1_
#128
b00000000000000000000000100000100 #
b00000000000000000000000100001000 *
b00000000000000000000000100000100 +
b00000000000000000000000100001000 [
0_
#129
1_
#130
b00000000000000000000000100001000 #
b00000000000000000000000100001100 *
b00000000000000000000000100001000 +
b00000000000000000000000100001100 [
0_
#131
1_
#132
b00000000000000000000000100001100 #
b00000000000000000000000100010000 *
b00000000000000000000000100001100 +
b00000000000000000000000100010000 [
0_
#133
1_
#134
b00000000000000000000000100010000 #
b00000000000000000000000100010100 *
b00000000000000000000000100010000 +
b00000000000000000000000100010100 [
0_
#135
1_
#136
b00000000000000000000000100010100 #
b00000000000000000000000100011000 *
b00000000000000000000000100010100 +
b00000000000000000000000100011000 [
0_
#137
1_
#138
b00000000000000000000000100011000 #
b00000000000000000000000100011100 *
b00000000000000000000000100011000 +
b00000000000000000000000100011100 [
0_
#139
1_
#140
b00000000000000000000000100011100 #
b00000000000000000000000100100000 *
b00000000000000000000000100011100 +
b00000000000000000000000100100000 [
0_
#141
1_
#142
b00000000000000000000000100100000 #
b00000000000000000000000100100100 *
b00000000000000000000000100100000 +
b00000000000000000000000100100100 [
0_
#143
1_
#144
b00000000000000000000000100100100 #
b00000000000000000000000100101000 *
b00000000000000000000000100100100 +
b00000000000000000000000100101000 [
0_
#145
1_
#146
b00000000000000000000000100101000 #
b00000000000000000000000100101100 *
b00000000000000000000000100101000 +
b00000000000000000000000100101100 [
0_
#147
1_
#148
b00000000000000000000000100101100 #
b00000000000000000000000100110000 *
b00000000000000000000000100101100 +
b00000000000000000000000100110000 [
0_
#149
1_
#150
b00000000000000000000000100110000 #
b00000000000000000000000100110100 *
b00000000000000000000000100110000 +
b00000000000000000000000100110100 [
0_
#151
1_
#152
b00000000000000000000000100110100 #
b00000000000000000000000100111000 *
b00000000000000000000000100110100 +
b00000000000000000000000100111000 [
0_
#153
1_
#154
b00000000000000000000000100111000 #
b00000000000000000000000100111100 *
b00000000000000000000000100111000 +
b00000000000000000000000100111100 [
0_
#155
1_
#156
b00000000000000000000000100111100 #
b00000000000000000000000101000000 *
b00000000000000000000000100111100 +
b00000000000000000000000101000000 [
0_
#157
1_
#158
b00000000000000000000000101000000 #
b00000000000000000000000101000100 *
b00000000000000000000000101000000 +
b00000000000000000000000101000100 [
0_
#159
1_
#160
b00000000000000000000000101000100 #
b00000000000000000000000101001000 *
b00000000000000000000000101000100 +
b00000000000000000000000101001000 [
0_
#161
1_
#162
b00000000000000000000000101001000 #
b00000000000000000000000101001100 *
b00000000000000000000000101001000 +
b00000000000000000000000101001100 [
0_
#163
1_
#164
b00000000000000000000000101001100 #
b00000000000000000000000101010000 *
b00000000000000000000000101001100 +
b00000000000000000000000101010000 [
0_
#165
1_
#166
b00000000000000000000000101010000 #
b00000000000000000000000101010100 *
b00000000000000000000000101010000 +
b00000000000000000000000101010100 [
0_
#167
1_
#168
b00000000000000000000000101010100 #
b00000000000000000000000101011000 *
b00000000000000000000000101010100 +
b00000000000000000000000101011000 [
0_
#169
1_
#170
b00000000000000000000000101011000 #
b00000000000000000000000101011100 *
b00000000000000000000000101011000 +
b00000000000000000000000101011100 [
0_
#171
1_
#172
b00000000000000000000000101011100 #
b00000000000000000000000101100000 *
b00000000000000000000000101011100 +
b00000000000000000000000101100000 [
0_
#173
1_
#174
b00000000000000000000000101100000 #
b00000000000000000000000101100100 *
b00000000000000000000000101100000 +
b00000000000000000000000101100100 [
0_
#175
1_
#176
b00000000000000000000000101100100 #
b00000000000000000000000101101000 *
b00000000000000000000000101100100 +
b00000000000000000000000101101000 [
0_
#177
1_
#178
b00000000000000000000000101101000 #
b00000000000000000000000101101100 *
b00000000000000000000000101101000 +
b00000000000000000000000101101100 [
0_
#179
1_
#180
b00000000000000000000000101101100 #
b00000000000000000000000101110000 *
b00000000000000000000000101101100 +
b00000000000000000000000101110000 [
0_
#181
1_
#182
b00000000000000000000000101110000 #
b00000000000000000000000101110100 *
b00000000000000000000000101110000 +
b00000000000000000000000101110100 [
0_
#183
1_
#184
b00000000000000000000000101110100 #
b00000000000000000000000101111000 *
b00000000000000000000000101110100 +
b00000000000000000000000101111000 [
0_
#185
1_
#186
b00000000000000000000000101111000 #
b00000000000000000000000101111100 *
b00000000000000000000000101111000 +
b00000000000000000000000101111100 [
0_
#187
1_
#188
b00000000000000000000000101111100 #
b00000000000000000000000110000000 *
b00000000000000000000000101111100 +
b00000000000000000000000110000000 [
0_
#189
1_
#190
b00000000000000000000000110000000 #
b00000000000000000000000110000100 *
b00000000000000000000000110000000 +
b00000000000000000000000110000100 [
0_
#191
1_
#192
b00000000000000000000000110000100 #
b00000000000000000000000110001000 *
b00000000000000000000000110000100 +
b00000000000000000000000110001000 [
0_
#193
1_
#194
b00000000000000000000000110001000 #
b00000000000000000000000110001100 *
b00000000000000000000000110001000 +
b00000000000000000000000110001100 [
0_
#195
1_
#196
b00000000000000000000000110001100 #
b00000000000000000000000110010000 *
b00000000000000000000000110001100 +
b00000000000000000000000110010000 [
0_
#197
1_
#198
b00000000000000000000000110010000 #
b00000000000000000000000110010100 *
b00000000000000000000000110010000 +
b00000000000000000000000110010100 [
0_
#199
1_
#200
b00000000000000000000000110010100 #
b00000000000000000000000110011000 *
b00000000000000000000000110010100 +
b00000000000000000000000110011000 [
0_
#201
1_
#202
b00000000000000000000000110011000 #
b00000000000000000000000110011100 *
b00000000000000000000000110011000 +
b00000000000000000000000110011100 [
0_
#203
1_
#204
b00000000000000000000000110011100 #
b00000000000000000000000110100000 *
b00000000000000000000000110011100 +
b00000000000000000000000110100000 [
0_
#205
1_
#206
b00000000000000000000000110100000 #
b00000000000000000000000110100100 *
b00000000000000000000000110100000 +
b00000000000000000000000110100100 [
0_
#207
1_
#208
b00000000000000000000000110100100 #
b00000000000000000000000110101000 *
b00000000000000000000000110100100 +
b00000000000000000000000110101000 [
0_
#209
1_
#210
b00000000000000000000000110101000 #
b00000000000000000000000110101100 *
b00000000000000000000000110101000 +
b00000000000000000000000110101100 [
0_
#211
1_
#212
b00000000000000000000000110101100 #
b00000000000000000000000110110000 *
b00000000000000000000000110101100 +
b00000000000000000000000110110000 [
0_
#213
1_
#214
b00000000000000000000000110110000 #
b00000000000000000000000110110100 *
b00000000000000000000000110110000 +
b00000000000000000000000110110100 [
0_
#215
1_
#216
b00000000000000000000000110110100 #
b00000000000000000000000110111000 *
b00000000000000000000000110110100 +
b00000000000000000000000110111000 [
0_
#217
1_
#218
b00000000000000000000000110111000 #
b00000000000000000000000110111100 *
b00000000000000000000000110111000 +
b00000000000000000000000110111100 [
0_
#219
1_
#220
b00000000000000000000000110111100 #
b00000000000000000000000111000000 *
b00000000000000000000000110111100 +
b00000000000000000000000111000000 [
0_
#221
1_
#222
b00000000000000000000000111000000 #
b00000000000000000000000111000100 *
b00000000000000000000000111000000 +
b00000000000000000000000111000100 [
0_
#223
1_
#224
b00000000000000000000000111000100 #
b00000000000000000000000111001000 *
b00000000000000000000000111000100 +
b00000000000000000000000111001000 [
0_
#225
1_
#226
b00000000000000000000000111001000 #
b00000000000000000000000111001100 *
b00000000000000000000000111001000 +
b00000000000000000000000111001100 [
0_
#227
1_
#228
b00000000000000000000000111001100 #
b00000000000000000000000111010000 *
b00000000000000000000000111001100 +
b00000000000000000000000111010000 [
0_
#229
1_
#230
b00000000000000000000000111010000 #
b00000000000000000000000111010100 *
b00000000000000000000000111010000 +
b00000000000000000000000111010100 [
0_
#231
1_
#232
b00000000000000000000000111010100 #
b00000000000000000000000111011000 *
b00000000000000000000000111010100 +
b00000000000000000000000111011000 [
0_
#233
1_
#234
b00000000000000000000000111011000 #
b00000000000000000000000111011100 *
b00000000000000000000000111011000 +
b00000000000000000000000111011100 [
0_
#235
1_
#236
b00000000000000000000000111011100 #
b00000000000000000000000111100000 *
b00000000000000000000000111011100 +
b00000000000000000000000111100000 [
0_
#237
1_
#238
b00000000000000000000000111100000 #
b00000000000000000000000111100100 *
b00000000000000000000000111100000 +
b00000000000000000000000111100100 [
0_
#239
1_
#240
b00000000000000000000000111100100 #
b00000000000000000000000111101000 *
b00000000000000000000000111100100 +
b00000000000000000000000111101000 [
0_
#241
1_
