Lab4/lab4_template/waveform.vcd
$version Generated by VerilatedVcd $end
$timescale 1s $end

 $scope module TOP $end
  $var wire  1 ;! clk $end
  $var wire 32 =! r[0] [31:0] $end
  $var wire 32 G! r[10] [31:0] $end
  $var wire 32 H! r[11] [31:0] $end
  $var wire 32 I! r[12] [31:0] $end
  $var wire 32 J! r[13] [31:0] $end
  $var wire 32 K! r[14] [31:0] $end
  $var wire 32 L! r[15] [31:0] $end
  $var wire 32 M! r[16] [31:0] $end
  $var wire 32 N! r[17] [31:0] $end
  $var wire 32 O! r[18] [31:0] $end
  $var wire 32 P! r[19] [31:0] $end
  $var wire 32 >! r[1] [31:0] $end
  $var wire 32 Q! r[20] [31:0] $end
  $var wire 32 R! r[21] [31:0] $end
  $var wire 32 S! r[22] [31:0] $end
  $var wire 32 T! r[23] [31:0] $end
  $var wire 32 U! r[24] [31:0] $end
  $var wire 32 V! r[25] [31:0] $end
  $var wire 32 W! r[26] [31:0] $end
  $var wire 32 X! r[27] [31:0] $end
  $var wire 32 Y! r[28] [31:0] $end
  $var wire 32 Z! r[29] [31:0] $end
  $var wire 32 ?! r[2] [31:0] $end
  $var wire 32 [! r[30] [31:0] $end
  $var wire 32 \! r[31] [31:0] $end
  $var wire 32 @! r[3] [31:0] $end
  $var wire 32 A! r[4] [31:0] $end
  $var wire 32 B! r[5] [31:0] $end
  $var wire 32 C! r[6] [31:0] $end
  $var wire 32 D! r[7] [31:0] $end
  $var wire 32 E! r[8] [31:0] $end
  $var wire 32 F! r[9] [31:0] $end
  $var wire  1 <! start $end
  $scope module PipelineCPU $end
   $var wire  4 Z ALUCtl [3:0] $end
   $var wire  2 O ALUOp [1:0] $end
   $var wire 32 [ ALUOut [31:0] $end
   $var wire  1 K ALUSrc $end
   $var wire 32 Y ALUSrcB [31:0] $end
   $var wire  1 4! BrEq $end
   $var wire  1 5! BrLT $end
   $var wire 133 ] EX_MEM [132:0] $end
   $var wire  1 6! Flush_ctrl $end
   $var wire 168 S ID_EX [167:0] $end
   $var wire 96 F IF_ID [95:0] $end
   $var wire 131 b MEM_WB [130:0] $end
   $var wire 32 D PCPlus4 [31:0] $end
   $var wire  2 7! PCSel [1:0] $end
   $var wire  1 M PCorR1 $end
   $var wire 32 R branchAddr [31:0] $end
   $var wire 32 -! branchTarget [31:0] $end
   $var wire 32 ,! branch_adder_input [31:0] $end
   $var wire  1 ;! clk $end
   $var wire 32 Q imm [31:0] $end
   $var wire 32 E inst [31:0] $end
   $var wire 32 ]! memData [31:0] $end
   $var wire  1 I memRead $end
   $var wire  1 J memWrite $end
   $var wire  2 N memtoReg [1:0] $end
   $var wire 32 +! pc_i [31:0] $end
   $var wire 32 C pc_o [31:0] $end
   $var wire 32 =! r[0] [31:0] $end
   $var wire 32 G! r[10] [31:0] $end
   $var wire 32 H! r[11] [31:0] $end
   $var wire 32 I! r[12] [31:0] $end
   $var wire 32 J! r[13] [31:0] $end
   $var wire 32 K! r[14] [31:0] $end
   $var wire 32 L! r[15] [31:0] $end
   $var wire 32 M! r[16] [31:0] $end
   $var wire 32 N! r[17] [31:0] $end
   $var wire 32 O! r[18] [31:0] $end
   $var wire 32 P! r[19] [31:0] $end
   $var wire 32 >! r[1] [31:0] $end
   $var wire 32 Q! r[20] [31:0] $end
   $var wire 32 R! r[21] [31:0] $end
   $var wire 32 S! r[22] [31:0] $end
   $var wire 32 T! r[23] [31:0] $end
   $var wire 32 U! r[24] [31:0] $end
   $var wire 32 V! r[25] [31:0] $end
   $var wire 32 W! r[26] [31:0] $end
   $var wire 32 X! r[27] [31:0] $end
   $var wire 32 Y! r[28] [31:0] $end
   $var wire 32 Z! r[29] [31:0] $end
   $var wire 32 ?! r[2] [31:0] $end
   $var wire 32 [! r[30] [31:0] $end
   $var wire 32 \! r[31] [31:0] $end
   $var wire 32 @! r[3] [31:0] $end
   $var wire 32 A! r[4] [31:0] $end
   $var wire 32 B! r[5] [31:0] $end
   $var wire 32 C! r[6] [31:0] $end
   $var wire 32 D! r[7] [31:0] $end
   $var wire 32 E! r[8] [31:0] $end
   $var wire 32 F! r[9] [31:0] $end
   $var wire 32 8! readData1 [31:0] $end
   $var wire 32 9! readData2 [31:0] $end
   $var wire  1 L regWrite $end
   $var wire  1 <! start $end
   $var wire 32 P writeData [31:0] $end
   $var wire  1 \ zero $end
   $scope module m_ALU $end
    $var wire 32 g A [31:0] $end
    $var wire 32 [ ALUOut [31:0] $end
    $var wire  4 Z ALUctl [3:0] $end
    $var wire 32 Y B [31:0] $end
    $var wire  1 \ zero $end
   $upscope $end
   $scope module m_ALUCtrl $end
    $var wire  4 Z ALUCtl [3:0] $end
    $var wire  2 h ALUOp [1:0] $end
    $var wire  3 j funct3 [2:0] $end
    $var wire  1 i funct7 $end
   $upscope $end
   $scope module m_Adder_1 $end
    $var wire 32 C a [31:0] $end
    $var wire 32 `! b [31:0] $end
    $var wire 32 D sum [31:0] $end
   $upscope $end
   $scope module m_Adder_2 $end
    $var wire 32 ,! a [31:0] $end
    $var wire 32 R b [31:0] $end
    $var wire 32 -! sum [31:0] $end
   $upscope $end
   $scope module m_BranchComp $end
    $var wire 32 8! A [31:0] $end
    $var wire 32 9! B [31:0] $end
    $var wire  1 4! BrEq $end
    $var wire  1 5! BrLT $end
   $upscope $end
   $scope module m_Control $end
    $var wire  2 O ALUOp [1:0] $end
    $var wire  1 K ALUSrc $end
    $var wire  1 4! BrEq $end
    $var wire  1 5! BrLT $end
    $var wire  1 6! Flush_ctrl $end
    $var wire  2 7! PCSel [1:0] $end
    $var wire  1 M PCorR1 $end
    $var wire  3 l funct3 [2:0] $end
    $var wire  1 I memRead $end
    $var wire  1 J memWrite $end
    $var wire  2 N memtoReg [1:0] $end
    $var wire  7 k opcode [6:0] $end
    $var wire  1 L regWrite $end
   $upscope $end
   $scope module m_DataMemory $end
    $var wire 32 _! address [31:0] $end
    $var wire  1 ;! clk $end
    $var wire  1 ^! memRead $end
    $var wire  1 m memWrite $end
    $var wire 32 ]! readData [31:0] $end
    $var wire  1 <! rst $end
    $var wire 32 n writeData [31:0] $end
   $upscope $end
   $scope module m_EX_MEM $end
    $var wire  1 b! Flush_HD $end
    $var wire  1 b! Flush_ctrl $end
    $var wire 32 a! WIDTH [31:0] $end
    $var wire  1 ;! clk $end
    $var wire 133 o data_i [132:0] $end
    $var wire 133 ] data_o [132:0] $end
    $var wire  1 <! rst $end
   $upscope $end
   $scope module m_ID_EX $end
    $var wire  1 b! Flush_HD $end
    $var wire  1 b! Flush_ctrl $end
    $var wire 32 c! WIDTH [31:0] $end
    $var wire  1 ;! clk $end
    $var wire 168 .! data_i [167:0] $end
    $var wire 168 S data_o [167:0] $end
    $var wire  1 <! rst $end
   $upscope $end
   $scope module m_IF_ID $end
    $var wire  1 b! Flush_HD $end
    $var wire  1 6! Flush_ctrl $end
    $var wire 32 d! WIDTH [31:0] $end
    $var wire  1 ;! clk $end
    $var wire 96 t data_i [95:0] $end
    $var wire 96 F data_o [95:0] $end
    $var wire  1 <! rst $end
   $upscope $end
   $scope module m_ImmGen $end
    $var wire 32 Q imm [31:0] $end
    $var wire 32 w inst [31:0] $end
   $upscope $end
   $scope module m_InstMem $end
    $var wire 32 E inst [31:0] $end
    $var wire 32 C readAddr [31:0] $end
   $upscope $end
   $scope module m_MEM_WB $end
    $var wire  1 b! Flush_HD $end
    $var wire  1 b! Flush_ctrl $end
    $var wire 32 e! WIDTH [31:0] $end
    $var wire  1 ;! clk $end
    $var wire 131 &! data_i [130:0] $end
    $var wire 131 b data_o [130:0] $end
    $var wire  1 <! rst $end
   $upscope $end
   $scope module m_Mux_ALU $end
    $var wire 32 Y out [31:0] $end
    $var wire 32 y s0 [31:0] $end
    $var wire 32 z s1 [31:0] $end
    $var wire  1 x sel $end
    $var wire 32 f! size [31:0] $end
   $upscope $end
   $scope module m_Mux_PC $end
    $var wire 32 +! out [31:0] $end
    $var wire 32 D s0 [31:0] $end
    $var wire 32 -! s1 [31:0] $end
    $var wire  1 :! sel $end
    $var wire 32 f! size [31:0] $end
   $upscope $end
   $scope module m_Mux_WriteData $end
    $var wire 32 P out [31:0] $end
    $var wire 32 | s0 [31:0] $end
    $var wire 32 } s1 [31:0] $end
    $var wire 32 ~ s2 [31:0] $end
    $var wire  2 { sel [1:0] $end
    $var wire 32 f! size [31:0] $end
   $upscope $end
   $scope module m_Mux_jalr $end
    $var wire 32 ,! out [31:0] $end
    $var wire 32 !! s0 [31:0] $end
    $var wire 32 8! s1 [31:0] $end
    $var wire  1 M sel $end
    $var wire 32 f! size [31:0] $end
   $upscope $end
   $scope module m_PC $end
    $var wire  1 ;! clk $end
    $var wire 32 +! pc_i [31:0] $end
    $var wire 32 C pc_o [31:0] $end
    $var wire  1 <! rst $end
   $upscope $end
   $scope module m_Register $end
    $var wire  1 ;! clk $end
    $var wire 32 8! readData1 [31:0] $end
    $var wire 32 9! readData2 [31:0] $end
    $var wire  5 #! readReg1 [4:0] $end
    $var wire  5 $! readReg2 [4:0] $end
    $var wire  1 "! regWrite $end
    $var wire 32 # regs[0] [31:0] $end
    $var wire 32 - regs[10] [31:0] $end
    $var wire 32 . regs[11] [31:0] $end
    $var wire 32 / regs[12] [31:0] $end
    $var wire 32 0 regs[13] [31:0] $end
    $var wire 32 1 regs[14] [31:0] $end
    $var wire 32 2 regs[15] [31:0] $end
    $var wire 32 3 regs[16] [31:0] $end
    $var wire 32 4 regs[17] [31:0] $end
    $var wire 32 5 regs[18] [31:0] $end
    $var wire 32 6 regs[19] [31:0] $end
    $var wire 32 $ regs[1] [31:0] $end
    $var wire 32 7 regs[20] [31:0] $end
    $var wire 32 8 regs[21] [31:0] $end
    $var wire 32 9 regs[22] [31:0] $end
    $var wire 32 : regs[23] [31:0] $end
    $var wire 32 ; regs[24] [31:0] $end
    $var wire 32 < regs[25] [31:0] $end
    $var wire 32 = regs[26] [31:0] $end
    $var wire 32 > regs[27] [31:0] $end
    $var wire 32 ? regs[28] [31:0] $end
    $var wire 32 @ regs[29] [31:0] $end
    $var wire 32 % regs[2] [31:0] $end
    $var wire 32 A regs[30] [31:0] $end
    $var wire 32 B regs[31] [31:0] $end
    $var wire 32 & regs[3] [31:0] $end
    $var wire 32 ' regs[4] [31:0] $end
    $var wire 32 ( regs[5] [31:0] $end
    $var wire 32 ) regs[6] [31:0] $end
    $var wire 32 * regs[7] [31:0] $end
    $var wire 32 + regs[8] [31:0] $end
    $var wire 32 , regs[9] [31:0] $end
    $var wire  1 <! rst $end
    $var wire 32 P writeData [31:0] $end
    $var wire  5 %! writeReg [4:0] $end
   $upscope $end
   $scope module m_ShiftLeftOne $end
    $var wire  1 M PCorR1 $end
    $var wire 32 Q i [31:0] $end
    $var wire 32 R o [31:0] $end
   $upscope $end
  $upscope $end
 $upscope $end
$enddefinitions $end


#0
b00000000000000000000000000000000 #
b00000000000000000000000000000000 $
b00000000000000000000000000000000 %
b00000000000000000000000000000000 &
b00000000000000000000000000000000 '
b00000000000000000000000000000000 (
b00000000000000000000000000000000 )
b00000000000000000000000000000000 *
b00000000000000000000000000000000 +
b00000000000000000000000000000000 ,
b00000000000000000000000000000000 -
b00000000000000000000000000000000 .
b00000000000000000000000000000000 /
b00000000000000000000000000000000 0
b00000000000000000000000000000000 1
b00000000000000000000000000000000 2
b00000000000000000000000000000000 3
b00000000000000000000000000000000 4
b00000000000000000000000000000000 5
b00000000000000000000000000000000 6
b00000000000000000000000000000000 7
b00000000000000000000000000000000 8
b00000000000000000000000000000000 9
b00000000000000000000000000000000 :
b00000000000000000000000000000000 ;
b00000000000000000000000000000000 <
b00000000000000000000000000000000 =
b00000000000000000000000000000000 >
b00000000000000000000000000000000 ?
b00000000000000000000000000000000 @
b00000000000000000000000000000000 A
b00000000000000000000000000000000 B
b00000000000000000000000000000000 C
b00000000000000000000000000000100 D
b00000000000100000000010100010011 E
b000000000000000000000000000000000000000000000000000000000000000000000000000000000000000000000000 F
0I
0J
0K
0L
0M
b00 N
b00 O
b00000000000000000000000000000000 P
b00000000000000000000000000000000 Q
b00000000000000000000000000000000 R
b000000000000000000000000000000000000000000000000000000000000000000000000000000000000000000000000000000000000000000000000000000000000000000000000000000000000000000000000 S
b00000000000000000000000000000000 Y
b0010 Z
b00000000000000000000000000000000 [
1\
b0000000000000000000000000000000000000000000000000000000000000000000000000000000000000000000000000000000000000000000000000000000000000 ]
b00000000000000000000000000000000000000000000000000000000000000000000000000000000000000000000000000000000000000000000000000000000000 b
b00000000000000000000000000000000 g
b00 h
0i
b000 j
b0000000 k
b000 l
0m
b00000000000000000000000000000000 n
b0000000000000000000000000000000000000000000000000000000000000000000000000000000000000000000000000000000000000000000000000000000000000 o
b000000000000000000000000000001000000000000000000000000000000000000000000000100000000010100010011 t
b00000000000000000000000000000000 w
0x
b00000000000000000000000000000000 y
b00000000000000000000000000000000 z
b00 {
b00000000000000000000000000000000 |
b00000000000000000000000000000000 }
b00000000000000000000000000000000 ~
b00000000000000000000000000000000 !!
0"!
b00000 #!
b00000 $!
b00000 %!
b00000000000000000000000000000000000000000000000000000000000000000000000000000000000000000000000000000000000000000000000000000000000 &!
b00000000000000000000000000000100 +!
b00000000000000000000000000000000 ,!
b00000000000000000000000000000000 -!
b000000000000000000000000000000000000000000000000000000000000000000000000000000000000000000000000000000000000000000000000000000000000000000000000000000000000000000000000 .!
14!
05!
06!
b00 7!
b00000000000000000000000000000000 8!
b00000000000000000000000000000000 9!
0:!
0;!
1<!
b00000000000000000000000000000000 =!
b00000000000000000000000000000000 >!
b00000000000000000000000000000000 ?!
b00000000000000000000000000000000 @!
b00000000000000000000000000000000 A!
b00000000000000000000000000000000 B!
b00000000000000000000000000000000 C!
b00000000000000000000000000000000 D!
b00000000000000000000000000000000 E!
b00000000000000000000000000000000 F!
b00000000000000000000000000000000 G!
b00000000000000000000000000000000 H!
b00000000000000000000000000000000 I!
b00000000000000000000000000000000 J!
b00000000000000000000000000000000 K!
b00000000000000000000000000000000 L!
b00000000000000000000000000000000 M!
b00000000000000000000000000000000 N!
b00000000000000000000000000000000 O!
b00000000000000000000000000000000 P!
b00000000000000000000000000000000 Q!
b00000000000000000000000000000000 R!
b00000000000000000000000000000000 S!
b00000000000000000000000000000000 T!
b00000000000000000000000000000000 U!
b00000000000000000000000000000000 V!
b00000000000000000000000000000000 W!
b00000000000000000000000000000000 X!
b00000000000000000000000000000000 Y!
b00000000000000000000000000000000 Z!
b00000000000000000000000000000000 [!
b00000000000000000000000000000000 \!
b00000000000000000000000000000000 ]!
0^!
b00000000000000000000000000000000 _!
b00000000000000000000000000000100 `!
b00000000000000000000000010000101 a!
0b!
b00000000000000000000000010101000 c!
b00000000000000000000000001100000 d!
b00000000000000000000000010000011 e!
b00000000000000000000000000100000 f!
#1
b00000000000000000000000010000000 %
1;!
0<!
b00000000000000000000000010000000 ?!
#2
0;!
1<!
#3
b00000000000000000000000000000100 C
b00000000000000000000000000001000 D
b00000000000000000000000000010011 E
b000000000000000000000000000001000000000000000000000000000000000000000000000100000000010100010011 F
1K
1L
b11 O
b00000000000000000000000000000001 Q
b00000000000000000000000000000010 R
b0010011 k
b000000000000000000000000000010000000000000000000000000000000010000000000000000000000000000010011 t
b00000000000100000000010100010011 w
b00001 $!
b00000000000000000000000000001000 +!
b00000000000000000000000000000010 -!
b100001110000000000000000000000000000010000000000000000000000000000000000000000000000000000000000000000000000000000000000000000000000000100000000000100000000010100010011 .!
1;!
#4
0;!
#5
b00000000000000000000000000001000 C
b00000000000000000000000000001100 D
b000000000000000000000000000010000000000000000000000000000000010000000000000000000000000000010011 F
b00000000000000000000000000000000 Q
b00000000000000000000000000000000 R
b100001110000000000000000000000000000010000000000000000000000000000000000000000000000000000000000000000000000000000000000000000000000000100000000000100000000010100010011 S
b00000000000000000000000000000001 Y
b00000000000000000000000000000001 [
0\
b11 h
b1000000000000000000000000000000000100000000000000000000000000000000010000000000000000000000000000000000000000000100000000010100010011 o
b000000000000000000000000000011000000000000000000000000000000100000000000000000000000000000010011 t
b00000000000000000000000000010011 w
1x
b00000000000000000000000000000001 z
b00000000000000000000000000000100 !!
b00000 $!
b00000000000000000000000000001100 +!
b00000000000000000000000000000100 ,!
b00000000000000000000000000000100 -!
b100001110000000000000000000000000000100000000000000000000000000000000000000000000000000000000000000000000000000000000000000000000000000000000000000000000000000000010011 .!
1;!
#6
0;!
#7
b00000000000000000000000000001100 C
b00000000000000000000000000010000 D
b000000000000000000000000000011000000000000000000000000000000100000000000000000000000000000010011 F
b100001110000000000000000000000000000100000000000000000000000000000000000000000000000000000000000000000000000000000000000000000000000000000000000000000000000000000010011 S
b00000000000000000000000000000000 Y
b00000000000000000000000000000000 [
1\
b1000000000000000000000000000000000100000000000000000000000000000000010000000000000000000000000000000000000000000100000000010100010011 ]
b1000000000000000000000000000000001000000000000000000000000000000000000000000000000000000000000000000000000000000000000000000000010011 o
b000000000000000000000000000100000000000000000000000000000000110000000000000000000000000000010011 t
b00000000000000000000000000000000 z
b00000000000000000000000000001000 !!
b10000000000000000000000000000000100000000000000000000000000000000010000000000000000000000000000000000000000000100000000010100010011 &!
b00000000000000000000000000010000 +!
b00000000000000000000000000001000 ,!
b00000000000000000000000000001000 -!
b100001110000000000000000000000000000110000000000000000000000000000000000000000000000000000000000000000000000000000000000000000000000000000000000000000000000000000010011 .!
1;!
b00000000000000000000000000000001 _!
#8
0;!
#9
b00000000000000000000000000010000 C
b00000000000000000000000000010100 D
b000000000000000000000000000100000000000000000000000000000000110000000000000000000000000000010011 F
b00000000000000000000000000000001 P
b100001110000000000000000000000000000110000000000000000000000000000000000000000000000000000000000000000000000000000000000000000000000000000000000000000000000000000010011 S
b1000000000000000000000000000000001000000000000000000000000000000000000000000000000000000000000000000000000000000000000000000000010011 ]
b10000000000000000000000000000000100000000000000000000000000000000010000000000000000000000000000000000000000000100000000010100010011 b
b1000000000000000000000000000000001100000000000000000000000000000000000000000000000000000000000000000000000000000000000000000000010011 o
b000000000000000000000000000101000000000000000000000000000001000000000000000000000000000000010011 t
b00000000000000000000000000000001 |
b00000000000000000000000000000100 ~
b00000000000000000000000000001100 !!
1"!
b01010 %!
b10000000000000000000000000000001000000000000000000000000000000000000000000000000000000000000000000000000000000000000000000000010011 &!
b00000000000000000000000000010100 +!
b00000000000000000000000000001100 ,!
b00000000000000000000000000001100 -!
b100001110000000000000000000000000001000000000000000000000000000000000000000000000000000000000000000000000000000000000000000000000000000000000000000000000000000000010011 .!
1;!
b00000000000000000000000000000000 _!
#10
b00000000000000000000000000000001 -
0;!
b00000000000000000000000000000001 G!
#11
b00000000000000000000000000010100 C
b00000000000000000000000000011000 D
b000000000000000000000000000101000000000000000000000000000001000000000000000000000000000000010011 F
b00000000000000000000000000000000 P
b100001110000000000000000000000000001000000000000000000000000000000000000000000000000000000000000000000000000000000000000000000000000000000000000000000000000000000010011 S
b1000000000000000000000000000000001100000000000000000000000000000000000000000000000000000000000000000000000000000000000000000000010011 ]
b10000000000000000000000000000001000000000000000000000000000000000000000000000000000000000000000000000000000000000000000000000010011 b
b1000000000000000000000000000000010000000000000000000000000000000000000000000000000000000000000000000000000000000000000000000000010011 o
b000000000000000000000000000110000000000000000000000000000001010000000000000000000000000000010011 t
b00000000000000000000000000000000 |
b00000000000000000000000000001000 ~
b00000000000000000000000000010000 !!
b00000 %!
b10000000000000000000000000000001100000000000000000000000000000000000000000000000000000000000000000000000000000000000000000000010011 &!
b00000000000000000000000000011000 +!
b00000000000000000000000000010000 ,!
b00000000000000000000000000010000 -!
b100001110000000000000000000000000001010000000000000000000000000000000000000000000000000000000000000000000000000000000000000000000000000000000000000000000000000000010011 .!
1;!
#12
0;!
#13
b00000000000000000000000000011000 C
b00000000000000000000000000011100 D
b000000000000000000000000000110000000000000000000000000000001010000000000000000000000000000010011 F
b100001110000000000000000000000000001010000000000000000000000000000000000000000000000000000000000000000000000000000000000000000000000000000000000000000000000000000010011 S
b1000000000000000000000000000000010000000000000000000000000000000000000000000000000000000000000000000000000000000000000000000000010011 ]
b10000000000000000000000000000001100000000000000000000000000000000000000000000000000000000000000000000000000000000000000000000010011 b
b1000000000000000000000000000000010100000000000000000000000000000000000000000000000000000000000000000000000000000000000000000000010011 o
b000000000000000000000000000111000000000000000000000000000001100000000000000000000000000000010011 t
b00000000000000000000000000001100 ~
b00000000000000000000000000010100 !!
b10000000000000000000000000000010000000000000000000000000000000000000000000000000000000000000000000000000000000000000000000000010011 &!
b00000000000000000000000000011100 +!
b00000000000000000000000000010100 ,!
b00000000000000000000000000010100 -!
b100001110000000000000000000000000001100000000000000000000000000000000000000000000000000000000000000000000000000000000000000000000000000000000000000000000000000000010011 .!
1;!
#14
0;!
#15
b00000000000000000000000000011100 C
b00000000000000000000000000100000 D
b00000000000001010101010001100011 E
b000000000000000000000000000111000000000000000000000000000001100000000000000000000000000000010011 F
b100001110000000000000000000000000001100000000000000000000000000000000000000000000000000000000000000000000000000000000000000000000000000000000000000000000000000000010011 S
b1000000000000000000000000000000010100000000000000000000000000000000000000000000000000000000000000000000000000000000000000000000010011 ]
b10000000000000000000000000000010000000000000000000000000000000000000000000000000000000000000000000000000000000000000000000000010011 b
b1000000000000000000000000000000011000000000000000000000000000000000000000000000000000000000000000000000000000000000000000000000010011 o
b000000000000000000000000001000000000000000000000000000000001110000000000000001010101010001100011 t
b00000000000000000000000000010000 ~
b00000000000000000000000000011000 !!
b10000000000000000000000000000010100000000000000000000000000000000000000000000000000000000000000000000000000000000000000000000010011 &!
b00000000000000000000000000100000 +!
b00000000000000000000000000011000 ,!
b00000000000000000000000000011000 -!
b100001110000000000000000000000000001110000000000000000000000000000000000000000000000000000000000000000000000000000000000000000000000000000000000000000000000000000010011 .!
1;!
#16
0;!
#17
b00000000000000000000000000100000 C
b00000000000000000000000000100100 D
b00000000000100000000010110010011 E
b000000000000000000000000001000000000000000000000000000000001110000000000000001010101010001100011 F
0K
0L
b01 O
b00000000000000000000000000000100 Q
b00000000000000000000000000001000 R
b100001110000000000000000000000000001110000000000000000000000000000000000000000000000000000000000000000000000000000000000000000000000000000000000000000000000000000010011 S
b1000000000000000000000000000000011000000000000000000000000000000000000000000000000000000000000000000000000000000000000000000000010011 ]
b10000000000000000000000000000010100000000000000000000000000000000000000000000000000000000000000000000000000000000000000000000010011 b
b1100011 k
b101 l
b1000000000000000000000000000000011100000000000000000000000000000000000000000000000000000000000000000000000000000000000000000000010011 o
b000000000000000000000000001001000000000000000000000000000010000000000000000100000000010110010011 t
b00000000000001010101010001100011 w
b00000000000000000000000000010100 ~
b00000000000000000000000000011100 !!
b01010 #!
b10000000000000000000000000000011000000000000000000000000000000000000000000000000000000000000000000000000000000000000000000000010011 &!
b00000000000000000000000000100100 +!
b00000000000000000000000000011100 ,!
b00000000000000000000000000100100 -!
b000000100000000000000000000000000010000000000000000000000000000000000001000000000000000000000000000000000000000000000000000000000000010000000000000001010101010001100011 .!
04!
16!
b01 7!
b00000000000000000000000000000001 8!
1:!
1;!
#18
0;!
#19
b00000000000000000000000000100100 C
b00000000000000000000000000101000 D
b00000000001000000000011000010011 E
b000000000000000000000000000000000000000000000000000000000000000000000000000000000000000000000000 F
b00 O
b00000000000000000000000000000000 Q
b00000000000000000000000000000000 R
b000000100000000000000000000000000010000000000000000000000000000000000001000000000000000000000000000000000000000000000000000000000000010000000000000001010101010001100011 S
b1111 Z
b1000000000000000000000000000000011100000000000000000000000000000000000000000000000000000000000000000000000000000000000000000000010011 ]
b10000000000000000000000000000011000000000000000000000000000000000000000000000000000000000000000000000000000000000000000000000010011 b
b00000000000000000000000000000001 g
b01 h
b101 j
b0000000 k
b000 l
b0000000000000000000000000000000100000000000000000000000000000000000000000000000000000000000000000000000000000000001010101010001100011 o
b000000000000000000000000001010000000000000000000000000000010010000000000001000000000011000010011 t
b00000000000000000000000000000000 w
0x
b00000000000000000000000000000100 z
b00000000000000000000000000011000 ~
b00000000000000000000000000000000 !!
b00000 #!
b10000000000000000000000000000011100000000000000000000000000000000000000000000000000000000000000000000000000000000000000000000010011 &!
b00000000000000000000000000101000 +!
b00000000000000000000000000000000 ,!
b00000000000000000000000000000000 -!
b000000000000000000000000000000000000000000000000000000000000000000000000000000000000000000000000000000000000000000000000000000000000000000000000000000000000000000000000 .!
14!
06!
b00 7!
b00000000000000000000000000000000 8!
0:!
1;!
#20
0;!
#21
b00000000000000000000000000101000 C
b00000000000000000000000000101100 D
b00000000000000000000000000000000 E
b000000000000000000000000001010000000000000000000000000000010010000000000001000000000011000010011 F
1K
1L
b11 O
b00000000000000000000000000000010 Q
b00000000000000000000000000000100 R
b000000000000000000000000000000000000000000000000000000000000000000000000000000000000000000000000000000000000000000000000000000000000000000000000000000000000000000000000 S
b0010 Z
b0000000000000000000000000000000100000000000000000000000000000000000000000000000000000000000000000000000000000000001010101010001100011 ]
b10000000000000000000000000000011100000000000000000000000000000000000000000000000000000000000000000000000000000000000000000000010011 b
b00000000000000000000000000000000 g
b00 h
b000 j
b0010011 k
b0000000000000000000000000000000000000000000000000000000000000000000000000000000000000000000000000000000000000000000000000000000000000 o
b000000000000000000000000001011000000000000000000000000000010100000000000000000000000000000000000 t
b00000000001000000000011000010011 w
b00000000000000000000000000000000 z
b00000000000000000000000000011100 ~
b00000000000000000000000000100100 !!
b00010 $!
b00000000000000000000000000000100000000000000000000000000000000000000000000000000000000000000000000000000000000001010101010001100011 &!
b00000000000000000000000000101100 +!
b00000000000000000000000000100100 ,!
b00000000000000000000000000101000 -!
b100001110000000000000000000000000010100000000000000000000000000000000000000000000000000000000000100000000000000000000000000000000000001000000000001000000000011000010011 .!
04!
15!
b00000000000000000000000010000000 9!
1;!
#22
0;!
#23
b00000000000000000000000000101100 C
b00000000000000000000000000110000 D
b000000000000000000000000001011000000000000000000000000000010100000000000000000000000000000000000 F
0K
0L
b00 O
b00000000000000000000000000000000 Q
b00000000000000000000000000000000 R
b100001110000000000000000000000000010100000000000000000000000000000000000000000000000000000000000100000000000000000000000000000000000001000000000001000000000011000010011 S
b00000000000000000000000000000010 Y
b00000000000000000000000000000010 [
0\
b0000000000000000000000000000000000000000000000000000000000000000000000000000000000000000000000000000000000000000000000000000000000000 ]
b00000000000000000000000000000100000000000000000000000000000000000000000000000000000000000000000000000000000000001010101010001100011 b
b11 h
b0000000 k
b1000000000000000000000000000000101000000000000000000000000000000000100000000000000000000000001000000000000000001000000000011000010011 o
b000000000000000000000000001100000000000000000000000000000010110000000000000000000000000000000000 t
b00000000000000000000000000000000 w
1x
b00000000000000000000000010000000 y
b00000000000000000000000000000010 z
b00000000000000000000000000100000 ~
b00000000000000000000000000101000 !!
0"!
b00000 $!
b01000 %!
b00000000000000000000000000000000000000000000000000000000000000000000000000000000000000000000000000000000000000000000000000000000000 &!
b00000000000000000000000000110000 +!
b00000000000000000000000000101000 ,!
b000000000000000000000000000000000010110000000000000000000000000000000000000000000000000000000000000000000000000000000000000000000000000000000000000000000000000000000000 .!
14!
05!
b00000000000000000000000000000000 9!
1;!
#24
0;!
#25
b00000000000000000000000000110000 C
b00000000000000000000000000110100 D
b000000000000000000000000001100000000000000000000000000000010110000000000000000000000000000000000 F
b000000000000000000000000000000000010110000000000000000000000000000000000000000000000000000000000000000000000000000000000000000000000000000000000000000000000000000000000 S
b00000000000000000000000000000000 Y
b00000000000000000000000000000000 [
1\
b1000000000000000000000000000000101000000000000000000000000000000000100000000000000000000000001000000000000000001000000000011000010011 ]
b00000000000000000000000000000000000000000000000000000000000000000000000000000000000000000000000000000000000000000000000000000000000 b
b00 h
b00000000000000000000000010000000 n
b0000000000000000000000000000000101100000000000000000000000000000000000000000000000000000000000000000000000000000000000000000000000000 o
b000000000000000000000000001101000000000000000000000000000011000000000000000000000000000000000000 t
0x
b00000000000000000000000000000000 y
b00000000000000000000000000000000 z
b00000000000000000000000000000000 ~
b00000000000000000000000000101100 !!
b00000 %!
b10000000000000000000000000000101000000000000000000000000000000000100000000000000000000000000000000000000000001000000000011000010011 &!
b00000000000000000000000000110100 +!
b00000000000000000000000000101100 ,!
b00000000000000000000000000101100 -!
b000000000000000000000000000000000011000000000000000000000000000000000000000000000000000000000000000000000000000000000000000000000000000000000000000000000000000000000000 .!
1;!
b00000000000000000000000000000010 _!
#26
0;!
#27
b00000000000000000000000000110100 C
b00000000000000000000000000111000 D
b000000000000000000000000001101000000000000000000000000000011000000000000000000000000000000000000 F
b00000000000000000000000000000010 P
b000000000000000000000000000000000011000000000000000000000000000000000000000000000000000000000000000000000000000000000000000000000000000000000000000000000000000000000000 S
b0000000000000000000000000000000101100000000000000000000000000000000000000000000000000000000000000000000000000000000000000000000000000 ]
b10000000000000000000000000000101000000000000000000000000000000000100000000000000000000000000000000000000000001000000000011000010011 b
b00000000000000000000000000000000 n
b0000000000000000000000000000000110000000000000000000000000000000000000000000000000000000000000000000000000000000000000000000000000000 o
b000000000000000000000000001110000000000000000000000000000011010000000000000000000000000000000000 t
b00000000000000000000000000000010 |
b00000000000000000000000000101000 ~
b00000000000000000000000000110000 !!
1"!
b01100 %!
b00000000000000000000000000000101100000000000000000000000000000000000000000000000000000000000000000000000000000000000000000000000000 &!
b00000000000000000000000000111000 +!
b00000000000000000000000000110000 ,!
b00000000000000000000000000110000 -!
b000000000000000000000000000000000011010000000000000000000000000000000000000000000000000000000000000000000000000000000000000000000000000000000000000000000000000000000000 .!
1;!
b00000000000000000000000000000000 _!
#28
b00000000000000000000000000000010 /
0;!
b00000000000000000000000000000010 I!
