Lab4/lab4_template/waveform.vcd
$version Generated by VerilatedVcd $end
$timescale 1s $end

 $scope module TOP $end
  $var wire  1 K! clk $end
  $var wire 32 M! r[0] [31:0] $end
  $var wire 32 W! r[10] [31:0] $end
  $var wire 32 X! r[11] [31:0] $end
  $var wire 32 Y! r[12] [31:0] $end
  $var wire 32 Z! r[13] [31:0] $end
  $var wire 32 [! r[14] [31:0] $end
  $var wire 32 \! r[15] [31:0] $end
  $var wire 32 ]! r[16] [31:0] $end
  $var wire 32 ^! r[17] [31:0] $end
  $var wire 32 _! r[18] [31:0] $end
  $var wire 32 `! r[19] [31:0] $end
  $var wire 32 N! r[1] [31:0] $end
  $var wire 32 a! r[20] [31:0] $end
  $var wire 32 b! r[21] [31:0] $end
  $var wire 32 c! r[22] [31:0] $end
  $var wire 32 d! r[23] [31:0] $end
  $var wire 32 e! r[24] [31:0] $end
  $var wire 32 f! r[25] [31:0] $end
  $var wire 32 g! r[26] [31:0] $end
  $var wire 32 h! r[27] [31:0] $end
  $var wire 32 i! r[28] [31:0] $end
  $var wire 32 j! r[29] [31:0] $end
  $var wire 32 O! r[2] [31:0] $end
  $var wire 32 k! r[30] [31:0] $end
  $var wire 32 l! r[31] [31:0] $end
  $var wire 32 P! r[3] [31:0] $end
  $var wire 32 Q! r[4] [31:0] $end
  $var wire 32 R! r[5] [31:0] $end
  $var wire 32 S! r[6] [31:0] $end
  $var wire 32 T! r[7] [31:0] $end
  $var wire 32 U! r[8] [31:0] $end
  $var wire 32 V! r[9] [31:0] $end
  $var wire  1 L! start $end
  $scope module PipelineCPU $end
   $var wire  4 9 ALUCtl [3:0] $end
   $var wire  2 0 ALUOp [1:0] $end
   $var wire 32 p! ALUOut [31:0] $end
   $var wire  1 + ALUSrc $end
   $var wire 32 <! ALUSrcB [31:0] $end
   $var wire  1 D! BrEq $end
   $var wire  1 E! BrLT $end
   $var wire 32 H! BranchA [31:0] $end
   $var wire 32 I! BranchB [31:0] $end
   $var wire  1 . BranchOrJump $end
   $var wire 133 } EX_MEM [132:0] $end
   $var wire  1 9! Flush_HD $end
   $var wire  1 F! Flush_ctrl $end
   $var wire 32 :! ForwardA [31:0] $end
   $var wire 32 ;! ForwardB [31:0] $end
   $var wire 168 3 ID_EX [167:0] $end
   $var wire 96 & IF_ID [95:0] $end
   $var wire 131 $! MEM_WB [130:0] $end
   $var wire 32 $ PCPlus4 [31:0] $end
   $var wire  2 G! PCSel [1:0] $end
   $var wire  1 - PCorR1 $end
   $var wire  1 8! RePC $end
   $var wire 32 2 branchAddr [31:0] $end
   $var wire 32 Q branchTarget [31:0] $end
   $var wire 32 P branch_adder_input [31:0] $end
   $var wire  1 K! clk $end
   $var wire  2 { ex_ForwardA [1:0] $end
   $var wire  2 | ex_ForwardB [1:0] $end
   $var wire  1 y id_ForwardA $end
   $var wire  1 z id_ForwardB $end
   $var wire 32 1 imm [31:0] $end
   $var wire 32 % inst [31:0] $end
   $var wire 32 r! memData [31:0] $end
   $var wire  1 ) memRead $end
   $var wire  1 * memWrite $end
   $var wire  2 / memtoReg [1:0] $end
   $var wire 32 m! pc_RePC [31:0] $end
   $var wire 32 O pc_i [31:0] $end
   $var wire 32 # pc_o [31:0] $end
   $var wire 32 M! r[0] [31:0] $end
   $var wire 32 W! r[10] [31:0] $end
   $var wire 32 X! r[11] [31:0] $end
   $var wire 32 Y! r[12] [31:0] $end
   $var wire 32 Z! r[13] [31:0] $end
   $var wire 32 [! r[14] [31:0] $end
   $var wire 32 \! r[15] [31:0] $end
   $var wire 32 ]! r[16] [31:0] $end
   $var wire 32 ^! r[17] [31:0] $end
   $var wire 32 _! r[18] [31:0] $end
   $var wire 32 `! r[19] [31:0] $end
   $var wire 32 N! r[1] [31:0] $end
   $var wire 32 a! r[20] [31:0] $end
   $var wire 32 b! r[21] [31:0] $end
   $var wire 32 c! r[22] [31:0] $end
   $var wire 32 d! r[23] [31:0] $end
   $var wire 32 e! r[24] [31:0] $end
   $var wire 32 f! r[25] [31:0] $end
   $var wire 32 g! r[26] [31:0] $end
   $var wire 32 h! r[27] [31:0] $end
   $var wire 32 i! r[28] [31:0] $end
   $var wire 32 j! r[29] [31:0] $end
   $var wire 32 O! r[2] [31:0] $end
   $var wire 32 k! r[30] [31:0] $end
   $var wire 32 l! r[31] [31:0] $end
   $var wire 32 P! r[3] [31:0] $end
   $var wire 32 Q! r[4] [31:0] $end
   $var wire 32 R! r[5] [31:0] $end
   $var wire 32 S! r[6] [31:0] $end
   $var wire 32 T! r[7] [31:0] $end
   $var wire 32 U! r[8] [31:0] $end
   $var wire 32 V! r[9] [31:0] $end
   $var wire 32 n! readData1 [31:0] $end
   $var wire 32 o! readData2 [31:0] $end
   $var wire  1 , regWrite $end
   $var wire  1 L! start $end
   $var wire 32 x writeData [31:0] $end
   $var wire  1 q! zero $end
   $scope module FW_Unit $end
    $var wire  2 { ex_ForwardA [1:0] $end
    $var wire  2 | ex_ForwardB [1:0] $end
    $var wire  5 < ex_R1 [4:0] $end
    $var wire  5 = ex_R2 [4:0] $end
    $var wire  1 y id_ForwardA $end
    $var wire  1 z id_ForwardB $end
    $var wire  5 : id_R1 [4:0] $end
    $var wire  5 ; id_R2 [4:0] $end
    $var wire  5 )! mem_Rd [4:0] $end
    $var wire  1 +! mem_RegWrite $end
    $var wire  5 *! wb_Rd [4:0] $end
    $var wire  1 ,! wb_RegWrite $end
   $upscope $end
   $scope module HD_Unit $end
    $var wire  1 . BranchOrJump $end
    $var wire  1 9! Flush_HD $end
    $var wire  1 8! RePC $end
    $var wire  5 > ex_Rd [4:0] $end
    $var wire  1 ? ex_memRead $end
    $var wire  1 @ ex_regWrite $end
    $var wire  5 : id_R1 [4:0] $end
    $var wire  5 ; id_R2 [4:0] $end
    $var wire  5 )! mem_Rd [4:0] $end
    $var wire  1 =! mem_memRead $end
   $upscope $end
   $scope module m_ALU $end
    $var wire 32 :! A [31:0] $end
    $var wire 32 p! ALUOut [31:0] $end
    $var wire  4 9 ALUctl [3:0] $end
    $var wire 32 <! B [31:0] $end
    $var wire  1 q! zero $end
   $upscope $end
   $scope module m_ALUCtrl $end
    $var wire  4 9 ALUCtl [3:0] $end
    $var wire  2 A ALUOp [1:0] $end
    $var wire  3 C funct3 [2:0] $end
    $var wire  1 B funct7 $end
   $upscope $end
   $scope module m_Adder_1 $end
    $var wire 32 # a [31:0] $end
    $var wire 32 s! b [31:0] $end
    $var wire 32 $ sum [31:0] $end
   $upscope $end
   $scope module m_Adder_2 $end
    $var wire 32 P a [31:0] $end
    $var wire 32 2 b [31:0] $end
    $var wire 32 Q sum [31:0] $end
   $upscope $end
   $scope module m_BranchComp $end
    $var wire 32 H! A [31:0] $end
    $var wire 32 I! B [31:0] $end
    $var wire  1 D! BrEq $end
    $var wire  1 E! BrLT $end
   $upscope $end
   $scope module m_Control $end
    $var wire  2 0 ALUOp [1:0] $end
    $var wire  1 + ALUSrc $end
    $var wire  1 D! BrEq $end
    $var wire  1 E! BrLT $end
    $var wire  1 . BranchOrJump $end
    $var wire  1 F! Flush_ctrl $end
    $var wire  2 G! PCSel [1:0] $end
    $var wire  1 - PCorR1 $end
    $var wire  3 E funct3 [2:0] $end
    $var wire  1 ) memRead $end
    $var wire  1 * memWrite $end
    $var wire  2 / memtoReg [1:0] $end
    $var wire  7 D opcode [6:0] $end
    $var wire  1 , regWrite $end
   $upscope $end
   $scope module m_DataMemory $end
    $var wire 32 >! address [31:0] $end
    $var wire  1 K! clk $end
    $var wire  1 =! memRead $end
    $var wire  1 -! memWrite $end
    $var wire 32 r! readData [31:0] $end
    $var wire  1 L! rst $end
    $var wire 32 .! writeData [31:0] $end
   $upscope $end
   $scope module m_EX_MEM $end
    $var wire  1 u! Flush_HD $end
    $var wire  1 u! Flush_ctrl $end
    $var wire 32 t! WIDTH [31:0] $end
    $var wire  1 K! clk $end
    $var wire 133 ?! data_i [132:0] $end
    $var wire 133 } data_o [132:0] $end
    $var wire  1 L! rst $end
   $upscope $end
   $scope module m_ID_EX $end
    $var wire  1 9! Flush_HD $end
    $var wire  1 u! Flush_ctrl $end
    $var wire 32 v! WIDTH [31:0] $end
    $var wire  1 K! clk $end
    $var wire 168 R data_i [167:0] $end
    $var wire 168 3 data_o [167:0] $end
    $var wire  1 L! rst $end
   $upscope $end
   $scope module m_IF_ID $end
    $var wire  1 9! Flush_HD $end
    $var wire  1 F! Flush_ctrl $end
    $var wire 32 w! WIDTH [31:0] $end
    $var wire  1 K! clk $end
    $var wire 96 F data_i [95:0] $end
    $var wire 96 & data_o [95:0] $end
    $var wire  1 L! rst $end
   $upscope $end
   $scope module m_ImmGen $end
    $var wire 32 1 imm [31:0] $end
    $var wire 32 I inst [31:0] $end
   $upscope $end
   $scope module m_InstMem $end
    $var wire 32 % inst [31:0] $end
    $var wire 32 # readAddr [31:0] $end
   $upscope $end
   $scope module m_MEM_WB $end
    $var wire  1 u! Flush_HD $end
    $var wire  1 u! Flush_ctrl $end
    $var wire 32 x! WIDTH [31:0] $end
    $var wire  1 K! clk $end
    $var wire 131 3! data_i [130:0] $end
    $var wire 131 $! data_o [130:0] $end
    $var wire  1 L! rst $end
   $upscope $end
   $scope module m_Mux_ALU $end
    $var wire 32 <! out [31:0] $end
    $var wire 32 ;! s0 [31:0] $end
    $var wire 32 K s1 [31:0] $end
    $var wire  1 J sel $end
    $var wire 32 y! size [31:0] $end
   $upscope $end
   $scope module m_Mux_BranchA $end
    $var wire 32 H! out [31:0] $end
    $var wire 32 n! s0 [31:0] $end
    $var wire 32 >! s1 [31:0] $end
    $var wire  1 y sel $end
    $var wire 32 y! size [31:0] $end
   $upscope $end
   $scope module m_Mux_BranchB $end
    $var wire 32 I! out [31:0] $end
    $var wire 32 o! s0 [31:0] $end
    $var wire 32 >! s1 [31:0] $end
    $var wire  1 z sel $end
    $var wire 32 y! size [31:0] $end
   $upscope $end
   $scope module m_Mux_ForwardA $end
    $var wire 32 :! out [31:0] $end
    $var wire 32 L s0 [31:0] $end
    $var wire 32 x s1 [31:0] $end
    $var wire 32 >! s2 [31:0] $end
    $var wire  2 { sel [1:0] $end
    $var wire 32 y! size [31:0] $end
   $upscope $end
   $scope module m_Mux_ForwardB $end
    $var wire 32 ;! out [31:0] $end
    $var wire 32 M s0 [31:0] $end
    $var wire 32 x s1 [31:0] $end
    $var wire 32 >! s2 [31:0] $end
    $var wire  2 | sel [1:0] $end
    $var wire 32 y! size [31:0] $end
   $upscope $end
   $scope module m_Mux_PC $end
    $var wire 32 O out [31:0] $end
    $var wire 32 $ s0 [31:0] $end
    $var wire 32 Q s1 [31:0] $end
    $var wire  1 J! sel $end
    $var wire 32 y! size [31:0] $end
   $upscope $end
   $scope module m_Mux_RePC $end
    $var wire 32 m! out [31:0] $end
    $var wire 32 O s0 [31:0] $end
    $var wire 32 N s1 [31:0] $end
    $var wire  1 8! sel $end
    $var wire 32 y! size [31:0] $end
   $upscope $end
   $scope module m_Mux_WriteData $end
    $var wire 32 x out [31:0] $end
    $var wire 32 0! s0 [31:0] $end
    $var wire 32 1! s1 [31:0] $end
    $var wire 32 2! s2 [31:0] $end
    $var wire  2 /! sel [1:0] $end
    $var wire 32 y! size [31:0] $end
   $upscope $end
   $scope module m_Mux_jalr $end
    $var wire 32 P out [31:0] $end
    $var wire 32 N s0 [31:0] $end
    $var wire 32 H! s1 [31:0] $end
    $var wire  1 - sel $end
    $var wire 32 y! size [31:0] $end
   $upscope $end
   $scope module m_PC $end
    $var wire  1 K! clk $end
    $var wire 32 m! pc_i [31:0] $end
    $var wire 32 # pc_o [31:0] $end
    $var wire  1 L! rst $end
   $upscope $end
   $scope module m_Register $end
    $var wire  1 K! clk $end
    $var wire 32 n! readData1 [31:0] $end
    $var wire 32 o! readData2 [31:0] $end
    $var wire  5 : readReg1 [4:0] $end
    $var wire  5 ; readReg2 [4:0] $end
    $var wire  1 ,! regWrite $end
    $var wire 32 X regs[0] [31:0] $end
    $var wire 32 b regs[10] [31:0] $end
    $var wire 32 c regs[11] [31:0] $end
    $var wire 32 d regs[12] [31:0] $end
    $var wire 32 e regs[13] [31:0] $end
    $var wire 32 f regs[14] [31:0] $end
    $var wire 32 g regs[15] [31:0] $end
    $var wire 32 h regs[16] [31:0] $end
    $var wire 32 i regs[17] [31:0] $end
    $var wire 32 j regs[18] [31:0] $end
    $var wire 32 k regs[19] [31:0] $end
    $var wire 32 Y regs[1] [31:0] $end
    $var wire 32 l regs[20] [31:0] $end
    $var wire 32 m regs[21] [31:0] $end
    $var wire 32 n regs[22] [31:0] $end
    $var wire 32 o regs[23] [31:0] $end
    $var wire 32 p regs[24] [31:0] $end
    $var wire 32 q regs[25] [31:0] $end
    $var wire 32 r regs[26] [31:0] $end
    $var wire 32 s regs[27] [31:0] $end
    $var wire 32 t regs[28] [31:0] $end
    $var wire 32 u regs[29] [31:0] $end
    $var wire 32 Z regs[2] [31:0] $end
    $var wire 32 v regs[30] [31:0] $end
    $var wire 32 w regs[31] [31:0] $end
    $var wire 32 [ regs[3] [31:0] $end
    $var wire 32 \ regs[4] [31:0] $end
    $var wire 32 ] regs[5] [31:0] $end
    $var wire 32 ^ regs[6] [31:0] $end
    $var wire 32 _ regs[7] [31:0] $end
    $var wire 32 ` regs[8] [31:0] $end
    $var wire 32 a regs[9] [31:0] $end
    $var wire  1 L! rst $end
    $var wire 32 x writeData [31:0] $end
    $var wire  5 *! writeReg [4:0] $end
   $upscope $end
   $scope module m_ShiftLeftOne $end
    $var wire  1 - PCorR1 $end
    $var wire 32 1 i [31:0] $end
    $var wire 32 2 o [31:0] $end
   $upscope $end
  $upscope $end
 $upscope $end
$enddefinitions $end


#0
b00000000000000000000000000000000 #
b00000000000000000000000000000100 $
b00000110111101001000010010010011 %
b000000000000000000000000000000000000000000000000000000000000000000000000000000000000000000000000 &
0)
0*
0+
0,
0-
0.
b00 /
b00 0
b00000000000000000000000000000000 1
b00000000000000000000000000000000 2
b000000000000000000000000000000000000000000000000000000000000000000000000000000000000000000000000000000000000000000000000000000000000000000000000000000000000000000000000 3
b0010 9
b00000 :
b00000 ;
b00000 <
b00000 =
b00000 >
0?
0@
b00 A
0B
b000 C
b0000000 D
b000 E
b000000000000000000000000000001000000000000000000000000000000000000000110111101001000010010010011 F
b00000000000000000000000000000000 I
0J
b00000000000000000000000000000000 K
b00000000000000000000000000000000 L
b00000000000000000000000000000000 M
b00000000000000000000000000000000 N
b00000000000000000000000000000100 O
b00000000000000000000000000000000 P
b00000000000000000000000000000000 Q
b000000000000000000000000000000000000000000000000000000000000000000000000000000000000000000000000000000000000000000000000000000000000000000000000000000000000000000000000 R
b00000000000000000000000000000000 X
b00000000000000000000000000000000 Y
b00000000000000000000000000000000 Z
b00000000000000000000000000000000 [
b00000000000000000000000000000000 \
b00000000000000000000000000000000 ]
b00000000000000000000000000000000 ^
b00000000000000000000000000000000 _
b00000000000000000000000000000000 `
b00000000000000000000000000000000 a
b00000000000000000000000000000000 b
b00000000000000000000000000000000 c
b00000000000000000000000000000000 d
b00000000000000000000000000000000 e
b00000000000000000000000000000000 f
b00000000000000000000000000000000 g
b00000000000000000000000000000000 h
b00000000000000000000000000000000 i
b00000000000000000000000000000000 j
b00000000000000000000000000000000 k
b00000000000000000000000000000000 l
b00000000000000000000000000000000 m
b00000000000000000000000000000000 n
b00000000000000000000000000000000 o
b00000000000000000000000000000000 p
b00000000000000000000000000000000 q
b00000000000000000000000000000000 r
b00000000000000000000000000000000 s
b00000000000000000000000000000000 t
b00000000000000000000000000000000 u
b00000000000000000000000000000000 v
b00000000000000000000000000000000 w
b00000000000000000000000000000000 x
0y
0z
b00 {
b00 |
b0000000000000000000000000000000000000000000000000000000000000000000000000000000000000000000000000000000000000000000000000000000000000 }
b00000000000000000000000000000000000000000000000000000000000000000000000000000000000000000000000000000000000000000000000000000000000 $!
b00000 )!
b00000 *!
0+!
0,!
0-!
b00000000000000000000000000000000 .!
b00 /!
b00000000000000000000000000000000 0!
b00000000000000000000000000000000 1!
b00000000000000000000000000000000 2!
b00000000000000000000000000000000000000000000000000000000000000000000000000000000000000000000000000000000000000000000000000000000000 3!
08!
09!
b00000000000000000000000000000000 :!
b00000000000000000000000000000000 ;!
b00000000000000000000000000000000 <!
0=!
b00000000000000000000000000000000 >!
b0000000000000000000000000000000000000000000000000000000000000000000000000000000000000000000000000000000000000000000000000000000000000 ?!
1D!
0E!
0F!
b00 G!
b00000000000000000000000000000000 H!
b00000000000000000000000000000000 I!
0J!
0K!
1L!
b00000000000000000000000000000000 M!
b00000000000000000000000000000000 N!
b00000000000000000000000000000000 O!
b00000000000000000000000000000000 P!
b00000000000000000000000000000000 Q!
b00000000000000000000000000000000 R!
b00000000000000000000000000000000 S!
b00000000000000000000000000000000 T!
b00000000000000000000000000000000 U!
b00000000000000000000000000000000 V!
b00000000000000000000000000000000 W!
b00000000000000000000000000000000 X!
b00000000000000000000000000000000 Y!
b00000000000000000000000000000000 Z!
b00000000000000000000000000000000 [!
b00000000000000000000000000000000 \!
b00000000000000000000000000000000 ]!
b00000000000000000000000000000000 ^!
b00000000000000000000000000000000 _!
b00000000000000000000000000000000 `!
b00000000000000000000000000000000 a!
b00000000000000000000000000000000 b!
b00000000000000000000000000000000 c!
b00000000000000000000000000000000 d!
b00000000000000000000000000000000 e!
b00000000000000000000000000000000 f!
b00000000000000000000000000000000 g!
b00000000000000000000000000000000 h!
b00000000000000000000000000000000 i!
b00000000000000000000000000000000 j!
b00000000000000000000000000000000 k!
b00000000000000000000000000000000 l!
b00000000000000000000000000000100 m!
b00000000000000000000000000000000 n!
b00000000000000000000000000000000 o!
b00000000000000000000000000000000 p!
1q!
b00000000000000000000000000000000 r!
b00000000000000000000000000000100 s!
b00000000000000000000000010000101 t!
0u!
b00000000000000000000000010101000 v!
b00000000000000000000000001100000 w!
b00000000000000000000000010000011 x!
b00000000000000000000000000100000 y!
#1
b00000000000000000000000010000000 Z
1K!
0L!
b00000000000000000000000010000000 O!
#2
0K!
1L!
#3
b00000000000000000000000000000100 #
b00000000000000000000000000001000 $
b00000000110101001111010010010011 %
b000000000000000000000000000001000000000000000000000000000000000000000110111101001000010010010011 &
1+
1,
b11 0
b00000000000000000000000001101111 1
b00000000000000000000000011011110 2
b01001 :
b01111 ;
b0010011 D
b000000000000000000000000000010000000000000000000000000000000010000000000110101001111010010010011 F
b00000110111101001000010010010011 I
b00000000000000000000000000001000 O
b00000000000000000000000011011110 Q
b100001110000000000000000000000000000010000000000000000000000000000000000000000000000000000000000000000000000000000000000000000000110111100000110111101001000010010010011 R
1K!
b00000000000000000000000000001000 m!
#4
0K!
#5
b00000000000000000000000000001000 #
b00000000000000000000000000001100 $
b00000001001001001110010010010011 %
b000000000000000000000000000010000000000000000000000000000000010000000000110101001111010010010011 &
b00000000000000000000000000001101 1
b00000000000000000000000000011010 2
b100001110000000000000000000000000000010000000000000000000000000000000000000000000000000000000000000000000000000000000000000000000110111100000110111101001000010010010011 3
b01101 ;
b01001 <
b01111 =
b01001 >
1@
b11 A
b111 E
b000000000000000000000000000011000000000000000000000000000000100000000001001001001110010010010011 F
b00000000110101001111010010010011 I
1J
b00000000000000000000000001101111 K
b00000000000000000000000000000100 N
b00000000000000000000000000001100 O
b00000000000000000000000000000100 P
b00000000000000000000000000011110 Q
b100001110000000000000000000000000000100000000000000000000000000000000000000000000000000000000000000000000000000000000000000000000000110100000000110101001111010010010011 R
b00000000000000000000000001101111 <!
b1000000000000000000000000000000000100000000000000000000000000011011110000000000000000000000000000000000000110111101001000010010010011 ?!
1K!
b00000000000000000000000000001100 m!
b00000000000000000000000001101111 p!
0q!
#6
0K!
#7
b00000000000000000000000000001100 #
b00000000000000000000000000010000 $
b00000000100100010010000000100011 %
b000000000000000000000000000011000000000000000000000000000000100000000001001001001110010010010011 &
b00000000000000000000000000010010 1
b00000000000000000000000000100100 2
b100001110000000000000000000000000000100000000000000000000000000000000000000000000000000000000000000000000000000000000000000000000000110100000000110101001111010010010011 3
b0000 9
b10010 ;
b01101 =
b111 C
b110 E
b000000000000000000000000000100000000000000000000000000000000110000000000100100010010000000100011 F
b00000001001001001110010010010011 I
b00000000000000000000000000001101 K
b00000000000000000000000000001000 N
b00000000000000000000000000010000 O
b00000000000000000000000000001000 P
b00000000000000000000000000101100 Q
b100001110000000000000000000000000000110000000000000000000000000001101111000000000000000000000000000000000000000000000000000000000001001000000001001001001110010010010011 R
1y
b10 {
b1000000000000000000000000000000000100000000000000000000000000011011110000000000000000000000000000000000000110111101001000010010010011 }
b01001 )!
1+!
b10000000000000000000000000000000100000000000000000000000000011011110000000000000000000000000000000000000110111101001000010010010011 3!
b00000000000000000000000001101111 :!
b00000000000000000000000000001101 <!
b00000000000000000000000001101111 >!
b1000000000000000000000000000000001000000000000000000000000000000011010000000000000000000000000000000000000000110101001111010010010011 ?!
0D!
b00000000000000000000000001101111 H!
1K!
b00000000000000000000000000010000 m!
b00000000000000000000000000001101 p!
#8
0K!
#9
b00000000000000000000000000010000 #
b00000000000000000000000000010100 $
b00000000000000010010010110000011 %
b000000000000000000000000000100000000000000000000000000000000110000000000100100010010000000100011 &
1*
0,
b00 0
b00000000000000000000000000000000 1
b00000000000000000000000000000000 2
b100001110000000000000000000000000000110000000000000000000000000001101111000000000000000000000000000000000000000000000000000000000001001000000001001001001110010010010011 3
b0001 9
b00010 :
b01001 ;
b10010 =
b110 C
b0100011 D
b010 E
b000000000000000000000000000101000000000000000000000000000001000000000000000000010010010110000011 F
b00000000100100010010000000100011 I
b00000000000000000000000000010010 K
b00000000000000000000000001101111 L
b00000000000000000000000000001100 N
b00000000000000000000000000010100 O
b00000000000000000000000000001100 P
b00000000000000000000000000001100 Q
b000100010000000000000000000000000001000000000000000000000000000010000000000000000000000000000000000011010000000000000000000000000000000000000000100100010010000000100011 R
b00000000000000000000000001101111 x
0y
1z
b1000000000000000000000000000000001000000000000000000000000000000011010000000000000000000000000000000000000000110101001111010010010011 }
b10000000000000000000000000000000100000000000000000000000000011011110000000000000000000000000000000000000110111101001000010010010011 $!
b01001 *!
1,!
b00000000000000000000000001101111 0!
b00000000000000000000000000000100 2!
b10000000000000000000000000000001000000000000000000000000000000011010000000000000000000000000000000000000000110101001111010010010011 3!
b00000000000000000000000000001101 :!
b00000000000000000000000000010010 <!
b00000000000000000000000000001101 >!
b1000000000000000000000000000000001100000000000000000000000000000111110000000000000000000000000000000000000001001001001110010010010011 ?!
b00000000000000000000000010000000 H!
b00000000000000000000000000001101 I!
1K!
b00000000000000000000000000010100 m!
b00000000000000000000000010000000 n!
b00000000000000000000000000011111 p!
#10
b00000000000000000000000001101111 a
0K!
b00000000000000000000000001101111 V!
b00000000000000000000000001101111 o!
#11
b00000000000000000000000000010100 #
b00000000000000000000000000011000 $
b00000000000000010010010100000011 %
b000000000000000000000000000101000000000000000000000000000001000000000000000000010010010110000011 &
1)
0*
1,
b01 /
b000100010000000000000000000000000001000000000000000000000000000010000000000000000000000000000000000011010000000000000000000000000000000000000000100100010010000000100011 3
b0010 9
b00000 ;
b00010 <
b01001 =
b00000 >
0@
b00 A
b010 C
b0000011 D
b000000000000000000000000000110000000000000000000000000000001010000000000000000010010010100000011 F
b00000000000000010010010110000011 I
b00000000000000000000000000000000 K
b00000000000000000000000010000000 L
b00000000000000000000000000001101 M
b00000000000000000000000000010000 N
b00000000000000000000000000011000 O
b00000000000000000000000000010000 P
b00000000000000000000000000010000 Q
b101010010000000000000000000000000001010000000000000000000000000010000000000000000000000000000000000000000000000000000000000000000000000000000000000000010010010110000011 R
b00000000000000000000000000001101 x
0z
b00 {
b10 |
b1000000000000000000000000000000001100000000000000000000000000000111110000000000000000000000000000000000000001001001001110010010010011 }
b10000000000000000000000000000001000000000000000000000000000000011010000000000000000000000000000000000000000110101001111010010010011 $!
b00000000000000000000000000001101 0!
b00000000000000000000000000001000 2!
b10000000000000000000000000000001100000000000000000000000000000111110000000000000000000000000000000000000001001001001110010010010011 3!
b00000000000000000000000010000000 :!
b00000000000000000000000000011111 ;!
b00000000000000000000000000000000 <!
b00000000000000000000000000011111 >!
b0001000000000000000000000000000010000000000000000000000000000100000000000000000000000000000000001111100000000100100010010000000100011 ?!
b00000000000000000000000000000000 I!
1K!
b00000000000000000000000000011000 m!
b00000000000000000000000000000000 o!
b00000000000000000000000010000000 p!
#12
b00000000000000000000000000001101 a
0K!
b00000000000000000000000000001101 V!
#13
b00000000000000000000000000011000 #
b00000000000000000000000000011100 $
b00000001100101010000010100010011 %
b000000000000000000000000000110000000000000000000000000000001010000000000000000010010010100000011 &
b101010010000000000000000000000000001010000000000000000000000000010000000000000000000000000000000000000000000000000000000000000000000000000000000000000010010010110000011 3
b00000 =
b01011 >
1?
1@
b000000000000000000000000000111000000000000000000000000000001100000000001100101010000010100010011 F
b00000000000000010010010100000011 I
b00000000000000000000000000000000 M
b00000000000000000000000000010100 N
b00000000000000000000000000011100 O
b00000000000000000000000000010100 P
b00000000000000000000000000010100 Q
b101010010000000000000000000000000001100000000000000000000000000010000000000000000000000000000000000000000000000000000000000000000000000000000000000000010010010100000011 R
b00000000000000000000000000011111 x
b00 |
b0001000000000000000000000000000010000000000000000000000000000100000000000000000000000000000000001111100000000100100010010000000100011 }
b10000000000000000000000000000001100000000000000000000000000000111110000000000000000000000000000000000000001001001001110010010010011 $!
b00000 )!
0+!
1-!
b00000000000000000000000000011111 .!
b00000000000000000000000000011111 0!
b00000000000000000000000000001100 2!
b00000000000000000000000000000010000000000000000000000000000100000000000000000000000000000000000000000000000100100010010000000100011 3!
b00000000000000000000000000000000 ;!
b00000000000000000000000010000000 >!
b1010100000000000000000000000000010100000000000000000000000000100000000000000000000000000000000000000000000000000000010010010110000011 ?!
1K!
b00000000000000000000000000011100 m!
#14
b00000000000000000000000000011111 a
0K!
b00000000000000000000000000011111 V!
#15
b00000000000000000000000000011100 #
b00000000000000000000000000100000 $
b01000000101101010000011000110011 %
b000000000000000000000000000111000000000000000000000000000001100000000001100101010000010100010011 &
0)
b00 /
b11 0
b00000000000000000000000000011001 1
b00000000000000000000000000110010 2
b101010010000000000000000000000000001100000000000000000000000000010000000000000000000000000000000000000000000000000000000000000000000000000000000000000010010010100000011 3
b01010 :
b11001 ;
b01010 >
b0010011 D
b000 E
b000000000000000000000000001000000000000000000000000000000001110001000000101101010000011000110011 F
b00000001100101010000010100010011 I
b00000000000000000000000000011000 N
b00000000000000000000000000100000 O
b00000000000000000000000000011000 P
b00000000000000000000000001001010 Q
b100001110000000000000000000000000001110000000000000000000000000000000000000000000000000000000000000000000000000000000000000000000001100100000001100101010000010100010011 R
b00000000000000000000000010000000 x
b1010100000000000000000000000000010100000000000000000000000000100000000000000000000000000000000000000000000000000000010010010110000011 }
b00000000000000000000000000000010000000000000000000000000000100000000000000000000000000000000000000000000000100100010010000000100011 $!
b01011 )!
b00000 *!
1+!
0,!
0-!
b00000000000000000000000000000000 .!
b00000000000000000000000010000000 0!
b00000000000000000000000000010000 2!
b10100000000000000000000000000010100000000000000000000000000100000000000000000000000000000000001111100000000000000010010010110000011 3!
18!
19!
1=!
b1010100000000000000000000000000011000000000000000000000000000100000000000000000000000000000000000000000000000000000010010010100000011 ?!
1D!
b00000000000000000000000000000000 H!
1K!
b00000000000000000000000000011000 m!
b00000000000000000000000000000000 n!
b00000000000000000000000000011111 r!
#16
0K!
#17
b00000000000000000000000000011000 #
b00000000000000000000000000011100 $
b00000001100101010000010100010011 %
b000000000000000000000000000000000000000000000000000000000000000000000000000000000000000000000000 &
0+
0,
b00 0
b00000000000000000000000000000000 1
b00000000000000000000000000000000 2
b000000000000000000000000000000000000000000000000000000000000000000000000000000000000000000000000000000000000000000000000000000000000000000000000000000000000000000000000 3
b00000 :
b00000 ;
b00000 <
b00000 >
0?
0@
b000 C
b0000000 D
b000000000000000000000000000111000000000000000000000000000001100000000001100101010000010100010011 F
b00000000000000000000000000000000 I
0J
b00000000000000000000000000000000 L
b00000000000000000000000000000000 N
b00000000000000000000000000011100 O
b00000000000000000000000000000000 P
b00000000000000000000000000000000 Q
b000000000000000000000000000000000000000000000000000000000000000000000000000000000000000000000000000000000000000000000000000000000000000000000000000000000000000000000000 R
b00000000000000000000000000011111 x
b1010100000000000000000000000000011000000000000000000000000000100000000000000000000000000000000000000000000000000000010010010100000011 }
b10100000000000000000000000000010100000000000000000000000000100000000000000000000000000000000001111100000000000000010010010110000011 $!
b01010 )!
b01011 *!
1,!
b01 /!
b00000000000000000000000000011111 1!
b00000000000000000000000000010100 2!
b10100000000000000000000000000011000000000000000000000000000100000000000000000000000000000000001111100000000000000010010010100000011 3!
08!
09!
b00000000000000000000000000000000 :!
b0000000000000000000000000000000000000000000000000000000000000000000000000000000000000000000000000000000000000000000000000000000000000 ?!
1K!
b00000000000000000000000000011100 m!
b00000000000000000000000000000000 p!
1q!
#18
b00000000000000000000000000011111 c
0K!
b00000000000000000000000000011111 X!
