Lab4/lab4_template/waveform.vcd
$version Generated by VerilatedVcd $end
$timescale 1s $end

 $scope module TOP $end
  $var wire  1 E! clk $end
  $var wire 32 G! r[0] [31:0] $end
  $var wire 32 Q! r[10] [31:0] $end
  $var wire 32 R! r[11] [31:0] $end
  $var wire 32 S! r[12] [31:0] $end
  $var wire 32 T! r[13] [31:0] $end
  $var wire 32 U! r[14] [31:0] $end
  $var wire 32 V! r[15] [31:0] $end
  $var wire 32 W! r[16] [31:0] $end
  $var wire 32 X! r[17] [31:0] $end
  $var wire 32 Y! r[18] [31:0] $end
  $var wire 32 Z! r[19] [31:0] $end
  $var wire 32 H! r[1] [31:0] $end
  $var wire 32 [! r[20] [31:0] $end
  $var wire 32 \! r[21] [31:0] $end
  $var wire 32 ]! r[22] [31:0] $end
  $var wire 32 ^! r[23] [31:0] $end
  $var wire 32 _! r[24] [31:0] $end
  $var wire 32 `! r[25] [31:0] $end
  $var wire 32 a! r[26] [31:0] $end
  $var wire 32 b! r[27] [31:0] $end
  $var wire 32 c! r[28] [31:0] $end
  $var wire 32 d! r[29] [31:0] $end
  $var wire 32 I! r[2] [31:0] $end
  $var wire 32 e! r[30] [31:0] $end
  $var wire 32 f! r[31] [31:0] $end
  $var wire 32 J! r[3] [31:0] $end
  $var wire 32 K! r[4] [31:0] $end
  $var wire 32 L! r[5] [31:0] $end
  $var wire 32 M! r[6] [31:0] $end
  $var wire 32 N! r[7] [31:0] $end
  $var wire 32 O! r[8] [31:0] $end
  $var wire 32 P! r[9] [31:0] $end
  $var wire  1 F! start $end
  $scope module PipelineCPU $end
   $var wire  4 8 ALUCtl [3:0] $end
   $var wire  2 / ALUOp [1:0] $end
   $var wire 32 i! ALUOut [31:0] $end
   $var wire  1 + ALUSrc $end
   $var wire 32 6! ALUSrcB [31:0] $end
   $var wire  1 >! BrEq $end
   $var wire  1 ?! BrLT $end
   $var wire 32 B! BranchA [31:0] $end
   $var wire 32 C! BranchB [31:0] $end
   $var wire 133 y EX_MEM [132:0] $end
   $var wire  1 @! Flush_ctrl $end
   $var wire 32 4! ForwardA [31:0] $end
   $var wire 32 5! ForwardB [31:0] $end
   $var wire 168 2 ID_EX [167:0] $end
   $var wire 96 & IF_ID [95:0] $end
   $var wire 131 ~ MEM_WB [130:0] $end
   $var wire 32 $ PCPlus4 [31:0] $end
   $var wire  2 A! PCSel [1:0] $end
   $var wire  1 - PCorR1 $end
   $var wire 32 1 branchAddr [31:0] $end
   $var wire 32 M branchTarget [31:0] $end
   $var wire 32 L branch_adder_input [31:0] $end
   $var wire  1 E! clk $end
   $var wire  2 w ex_ForwardA [1:0] $end
   $var wire  2 x ex_ForwardB [1:0] $end
   $var wire  1 u id_ForwardA $end
   $var wire  1 v id_ForwardB $end
   $var wire 32 0 imm [31:0] $end
   $var wire 32 % inst [31:0] $end
   $var wire 32 k! memData [31:0] $end
   $var wire  1 ) memRead $end
   $var wire  1 * memWrite $end
   $var wire  2 . memtoReg [1:0] $end
   $var wire 32 K pc_i [31:0] $end
   $var wire 32 # pc_o [31:0] $end
   $var wire 32 G! r[0] [31:0] $end
   $var wire 32 Q! r[10] [31:0] $end
   $var wire 32 R! r[11] [31:0] $end
   $var wire 32 S! r[12] [31:0] $end
   $var wire 32 T! r[13] [31:0] $end
   $var wire 32 U! r[14] [31:0] $end
   $var wire 32 V! r[15] [31:0] $end
   $var wire 32 W! r[16] [31:0] $end
   $var wire 32 X! r[17] [31:0] $end
   $var wire 32 Y! r[18] [31:0] $end
   $var wire 32 Z! r[19] [31:0] $end
   $var wire 32 H! r[1] [31:0] $end
   $var wire 32 [! r[20] [31:0] $end
   $var wire 32 \! r[21] [31:0] $end
   $var wire 32 ]! r[22] [31:0] $end
   $var wire 32 ^! r[23] [31:0] $end
   $var wire 32 _! r[24] [31:0] $end
   $var wire 32 `! r[25] [31:0] $end
   $var wire 32 a! r[26] [31:0] $end
   $var wire 32 b! r[27] [31:0] $end
   $var wire 32 c! r[28] [31:0] $end
   $var wire 32 d! r[29] [31:0] $end
   $var wire 32 I! r[2] [31:0] $end
   $var wire 32 e! r[30] [31:0] $end
   $var wire 32 f! r[31] [31:0] $end
   $var wire 32 J! r[3] [31:0] $end
   $var wire 32 K! r[4] [31:0] $end
   $var wire 32 L! r[5] [31:0] $end
   $var wire 32 M! r[6] [31:0] $end
   $var wire 32 N! r[7] [31:0] $end
   $var wire 32 O! r[8] [31:0] $end
   $var wire 32 P! r[9] [31:0] $end
   $var wire 32 g! readData1 [31:0] $end
   $var wire 32 h! readData2 [31:0] $end
   $var wire  1 , regWrite $end
   $var wire  1 F! start $end
   $var wire 32 t writeData [31:0] $end
   $var wire  1 j! zero $end
   $scope module FW_Unit $end
    $var wire  2 w ex_ForwardA [1:0] $end
    $var wire  2 x ex_ForwardB [1:0] $end
    $var wire  5 ; ex_R1 [4:0] $end
    $var wire  5 < ex_R2 [4:0] $end
    $var wire  1 u id_ForwardA $end
    $var wire  1 v id_ForwardB $end
    $var wire  5 9 id_R1 [4:0] $end
    $var wire  5 : id_R2 [4:0] $end
    $var wire  5 %! mem_Rd [4:0] $end
    $var wire  1 '! mem_RegWrite $end
    $var wire  5 &! wb_Rd [4:0] $end
    $var wire  1 (! wb_RegWrite $end
   $upscope $end
   $scope module m_ALU $end
    $var wire 32 4! A [31:0] $end
    $var wire 32 i! ALUOut [31:0] $end
    $var wire  4 8 ALUctl [3:0] $end
    $var wire 32 6! B [31:0] $end
    $var wire  1 j! zero $end
   $upscope $end
   $scope module m_ALUCtrl $end
    $var wire  4 8 ALUCtl [3:0] $end
    $var wire  2 = ALUOp [1:0] $end
    $var wire  3 ? funct3 [2:0] $end
    $var wire  1 > funct7 $end
   $upscope $end
   $scope module m_Adder_1 $end
    $var wire 32 # a [31:0] $end
    $var wire 32 l! b [31:0] $end
    $var wire 32 $ sum [31:0] $end
   $upscope $end
   $scope module m_Adder_2 $end
    $var wire 32 L a [31:0] $end
    $var wire 32 1 b [31:0] $end
    $var wire 32 M sum [31:0] $end
   $upscope $end
   $scope module m_BranchComp $end
    $var wire 32 B! A [31:0] $end
    $var wire 32 C! B [31:0] $end
    $var wire  1 >! BrEq $end
    $var wire  1 ?! BrLT $end
   $upscope $end
   $scope module m_Control $end
    $var wire  2 / ALUOp [1:0] $end
    $var wire  1 + ALUSrc $end
    $var wire  1 >! BrEq $end
    $var wire  1 ?! BrLT $end
    $var wire  1 @! Flush_ctrl $end
    $var wire  2 A! PCSel [1:0] $end
    $var wire  1 - PCorR1 $end
    $var wire  3 A funct3 [2:0] $end
    $var wire  1 ) memRead $end
    $var wire  1 * memWrite $end
    $var wire  2 . memtoReg [1:0] $end
    $var wire  7 @ opcode [6:0] $end
    $var wire  1 , regWrite $end
   $upscope $end
   $scope module m_DataMemory $end
    $var wire 32 8! address [31:0] $end
    $var wire  1 E! clk $end
    $var wire  1 7! memRead $end
    $var wire  1 )! memWrite $end
    $var wire 32 k! readData [31:0] $end
    $var wire  1 F! rst $end
    $var wire 32 *! writeData [31:0] $end
   $upscope $end
   $scope module m_EX_MEM $end
    $var wire  1 n! Flush_HD $end
    $var wire  1 n! Flush_ctrl $end
    $var wire 32 m! WIDTH [31:0] $end
    $var wire  1 E! clk $end
    $var wire 133 9! data_i [132:0] $end
    $var wire 133 y data_o [132:0] $end
    $var wire  1 F! rst $end
   $upscope $end
   $scope module m_ID_EX $end
    $var wire  1 n! Flush_HD $end
    $var wire  1 n! Flush_ctrl $end
    $var wire 32 o! WIDTH [31:0] $end
    $var wire  1 E! clk $end
    $var wire 168 N data_i [167:0] $end
    $var wire 168 2 data_o [167:0] $end
    $var wire  1 F! rst $end
   $upscope $end
   $scope module m_IF_ID $end
    $var wire  1 n! Flush_HD $end
    $var wire  1 @! Flush_ctrl $end
    $var wire 32 p! WIDTH [31:0] $end
    $var wire  1 E! clk $end
    $var wire 96 B data_i [95:0] $end
    $var wire 96 & data_o [95:0] $end
    $var wire  1 F! rst $end
   $upscope $end
   $scope module m_ImmGen $end
    $var wire 32 0 imm [31:0] $end
    $var wire 32 E inst [31:0] $end
   $upscope $end
   $scope module m_InstMem $end
    $var wire 32 % inst [31:0] $end
    $var wire 32 # readAddr [31:0] $end
   $upscope $end
   $scope module m_MEM_WB $end
    $var wire  1 n! Flush_HD $end
    $var wire  1 n! Flush_ctrl $end
    $var wire 32 q! WIDTH [31:0] $end
    $var wire  1 E! clk $end
    $var wire 131 /! data_i [130:0] $end
    $var wire 131 ~ data_o [130:0] $end
    $var wire  1 F! rst $end
   $upscope $end
   $scope module m_Mux_ALU $end
    $var wire 32 6! out [31:0] $end
    $var wire 32 5! s0 [31:0] $end
    $var wire 32 G s1 [31:0] $end
    $var wire  1 F sel $end
    $var wire 32 r! size [31:0] $end
   $upscope $end
   $scope module m_Mux_BranchA $end
    $var wire 32 B! out [31:0] $end
    $var wire 32 g! s0 [31:0] $end
    $var wire 32 8! s1 [31:0] $end
    $var wire  1 u sel $end
    $var wire 32 r! size [31:0] $end
   $upscope $end
   $scope module m_Mux_BranchB $end
    $var wire 32 C! out [31:0] $end
    $var wire 32 h! s0 [31:0] $end
    $var wire 32 8! s1 [31:0] $end
    $var wire  1 v sel $end
    $var wire 32 r! size [31:0] $end
   $upscope $end
   $scope module m_Mux_ForwardA $end
    $var wire 32 4! out [31:0] $end
    $var wire 32 H s0 [31:0] $end
    $var wire 32 t s1 [31:0] $end
    $var wire 32 8! s2 [31:0] $end
    $var wire  2 w sel [1:0] $end
    $var wire 32 r! size [31:0] $end
   $upscope $end
   $scope module m_Mux_ForwardB $end
    $var wire 32 5! out [31:0] $end
    $var wire 32 I s0 [31:0] $end
    $var wire 32 t s1 [31:0] $end
    $var wire 32 8! s2 [31:0] $end
    $var wire  2 x sel [1:0] $end
    $var wire 32 r! size [31:0] $end
   $upscope $end
   $scope module m_Mux_PC $end
    $var wire 32 K out [31:0] $end
    $var wire 32 $ s0 [31:0] $end
    $var wire 32 M s1 [31:0] $end
    $var wire  1 D! sel $end
    $var wire 32 r! size [31:0] $end
   $upscope $end
   $scope module m_Mux_WriteData $end
    $var wire 32 t out [31:0] $end
    $var wire 32 ,! s0 [31:0] $end
    $var wire 32 -! s1 [31:0] $end
    $var wire 32 .! s2 [31:0] $end
    $var wire  2 +! sel [1:0] $end
    $var wire 32 r! size [31:0] $end
   $upscope $end
   $scope module m_Mux_jalr $end
    $var wire 32 L out [31:0] $end
    $var wire 32 J s0 [31:0] $end
    $var wire 32 B! s1 [31:0] $end
    $var wire  1 - sel $end
    $var wire 32 r! size [31:0] $end
   $upscope $end
   $scope module m_PC $end
    $var wire  1 E! clk $end
    $var wire 32 K pc_i [31:0] $end
    $var wire 32 # pc_o [31:0] $end
    $var wire  1 F! rst $end
   $upscope $end
   $scope module m_Register $end
    $var wire  1 E! clk $end
    $var wire 32 g! readData1 [31:0] $end
    $var wire 32 h! readData2 [31:0] $end
    $var wire  5 9 readReg1 [4:0] $end
    $var wire  5 : readReg2 [4:0] $end
    $var wire  1 (! regWrite $end
    $var wire 32 T regs[0] [31:0] $end
    $var wire 32 ^ regs[10] [31:0] $end
    $var wire 32 _ regs[11] [31:0] $end
    $var wire 32 ` regs[12] [31:0] $end
    $var wire 32 a regs[13] [31:0] $end
    $var wire 32 b regs[14] [31:0] $end
    $var wire 32 c regs[15] [31:0] $end
    $var wire 32 d regs[16] [31:0] $end
    $var wire 32 e regs[17] [31:0] $end
    $var wire 32 f regs[18] [31:0] $end
    $var wire 32 g regs[19] [31:0] $end
    $var wire 32 U regs[1] [31:0] $end
    $var wire 32 h regs[20] [31:0] $end
    $var wire 32 i regs[21] [31:0] $end
    $var wire 32 j regs[22] [31:0] $end
    $var wire 32 k regs[23] [31:0] $end
    $var wire 32 l regs[24] [31:0] $end
    $var wire 32 m regs[25] [31:0] $end
    $var wire 32 n regs[26] [31:0] $end
    $var wire 32 o regs[27] [31:0] $end
    $var wire 32 p regs[28] [31:0] $end
    $var wire 32 q regs[29] [31:0] $end
    $var wire 32 V regs[2] [31:0] $end
    $var wire 32 r regs[30] [31:0] $end
    $var wire 32 s regs[31] [31:0] $end
    $var wire 32 W regs[3] [31:0] $end
    $var wire 32 X regs[4] [31:0] $end
    $var wire 32 Y regs[5] [31:0] $end
    $var wire 32 Z regs[6] [31:0] $end
    $var wire 32 [ regs[7] [31:0] $end
    $var wire 32 \ regs[8] [31:0] $end
    $var wire 32 ] regs[9] [31:0] $end
    $var wire  1 F! rst $end
    $var wire 32 t writeData [31:0] $end
    $var wire  5 &! writeReg [4:0] $end
   $upscope $end
   $scope module m_ShiftLeftOne $end
    $var wire  1 - PCorR1 $end
    $var wire 32 0 i [31:0] $end
    $var wire 32 1 o [31:0] $end
   $upscope $end
  $upscope $end
 $upscope $end
$enddefinitions $end


#0
b00000000000000000000000000000000 #
b00000000000000000000000000000100 $
b00000000101000000000010100010011 %
b000000000000000000000000000000000000000000000000000000000000000000000000000000000000000000000000 &
0)
0*
0+
0,
0-
b00 .
b00 /
b00000000000000000000000000000000 0
b00000000000000000000000000000000 1
b000000000000000000000000000000000000000000000000000000000000000000000000000000000000000000000000000000000000000000000000000000000000000000000000000000000000000000000000 2
b0010 8
b00000 9
b00000 :
b00000 ;
b00000 <
b00 =
0>
b000 ?
b0000000 @
b000 A
b000000000000000000000000000001000000000000000000000000000000000000000000101000000000010100010011 B
b00000000000000000000000000000000 E
0F
b00000000000000000000000000000000 G
b00000000000000000000000000000000 H
b00000000000000000000000000000000 I
b00000000000000000000000000000000 J
b00000000000000000000000000000100 K
b00000000000000000000000000000000 L
b00000000000000000000000000000000 M
b000000000000000000000000000000000000000000000000000000000000000000000000000000000000000000000000000000000000000000000000000000000000000000000000000000000000000000000000 N
b00000000000000000000000000000000 T
b00000000000000000000000000000000 U
b00000000000000000000000000000000 V
b00000000000000000000000000000000 W
b00000000000000000000000000000000 X
b00000000000000000000000000000000 Y
b00000000000000000000000000000000 Z
b00000000000000000000000000000000 [
b00000000000000000000000000000000 \
b00000000000000000000000000000000 ]
b00000000000000000000000000000000 ^
b00000000000000000000000000000000 _
b00000000000000000000000000000000 `
b00000000000000000000000000000000 a
b00000000000000000000000000000000 b
b00000000000000000000000000000000 c
b00000000000000000000000000000000 d
b00000000000000000000000000000000 e
b00000000000000000000000000000000 f
b00000000000000000000000000000000 g
b00000000000000000000000000000000 h
b00000000000000000000000000000000 i
b00000000000000000000000000000000 j
b00000000000000000000000000000000 k
b00000000000000000000000000000000 l
b00000000000000000000000000000000 m
b00000000000000000000000000000000 n
b00000000000000000000000000000000 o
b00000000000000000000000000000000 p
b00000000000000000000000000000000 q
b00000000000000000000000000000000 r
b00000000000000000000000000000000 s
b00000000000000000000000000000000 t
0u
0v
b00 w
b00 x
b0000000000000000000000000000000000000000000000000000000000000000000000000000000000000000000000000000000000000000000000000000000000000 y
b00000000000000000000000000000000000000000000000000000000000000000000000000000000000000000000000000000000000000000000000000000000000 ~
b00000 %!
b00000 &!
0'!
0(!
0)!
b00000000000000000000000000000000 *!
b00 +!
b00000000000000000000000000000000 ,!
b00000000000000000000000000000000 -!
b00000000000000000000000000000000 .!
b00000000000000000000000000000000000000000000000000000000000000000000000000000000000000000000000000000000000000000000000000000000000 /!
b00000000000000000000000000000000 4!
b00000000000000000000000000000000 5!
b00000000000000000000000000000000 6!
07!
b00000000000000000000000000000000 8!
b0000000000000000000000000000000000000000000000000000000000000000000000000000000000000000000000000000000000000000000000000000000000000 9!
1>!
0?!
0@!
b00 A!
b00000000000000000000000000000000 B!
b00000000000000000000000000000000 C!
0D!
0E!
1F!
b00000000000000000000000000000000 G!
b00000000000000000000000000000000 H!
b00000000000000000000000000000000 I!
b00000000000000000000000000000000 J!
b00000000000000000000000000000000 K!
b00000000000000000000000000000000 L!
b00000000000000000000000000000000 M!
b00000000000000000000000000000000 N!
b00000000000000000000000000000000 O!
b00000000000000000000000000000000 P!
b00000000000000000000000000000000 Q!
b00000000000000000000000000000000 R!
b00000000000000000000000000000000 S!
b00000000000000000000000000000000 T!
b00000000000000000000000000000000 U!
b00000000000000000000000000000000 V!
b00000000000000000000000000000000 W!
b00000000000000000000000000000000 X!
b00000000000000000000000000000000 Y!
b00000000000000000000000000000000 Z!
b00000000000000000000000000000000 [!
b00000000000000000000000000000000 \!
b00000000000000000000000000000000 ]!
b00000000000000000000000000000000 ^!
b00000000000000000000000000000000 _!
b00000000000000000000000000000000 `!
b00000000000000000000000000000000 a!
b00000000000000000000000000000000 b!
b00000000000000000000000000000000 c!
b00000000000000000000000000000000 d!
b00000000000000000000000000000000 e!
b00000000000000000000000000000000 f!
b00000000000000000000000000000000 g!
b00000000000000000000000000000000 h!
b00000000000000000000000000000000 i!
1j!
b00000000000000000000000000000000 k!
b00000000000000000000000000000100 l!
b00000000000000000000000010000101 m!
0n!
b00000000000000000000000010101000 o!
b00000000000000000000000001100000 p!
b00000000000000000000000010000011 q!
b00000000000000000000000000100000 r!
#1
b00000000000000000000000010000000 V
1E!
0F!
b00000000000000000000000010000000 I!
#2
0E!
1F!
#3
b00000000000000000000000000000100 #
b00000000000000000000000000001000 $
b00000000101000000001010001100011 %
b000000000000000000000000000001000000000000000000000000000000000000000000101000000000010100010011 &
1+
1,
b11 /
b00000000000000000000000000001010 0
b00000000000000000000000000010100 1
b01010 :
b0010011 @
b000000000000000000000000000010000000000000000000000000000000010000000000101000000001010001100011 B
b00000000101000000000010100010011 E
b00000000000000000000000000001000 K
b00000000000000000000000000010100 M
b100001110000000000000000000000000000010000000000000000000000000000000000000000000000000000000000000000000000000000000000000000000000101000000000101000000000010100010011 N
1E!
#4
0E!
#5
b00000000000000000000000000001000 #
b00000000000000000000000000001100 $
b00000000000100000000010110010011 %
b000000000000000000000000000010000000000000000000000000000000010000000000101000000001010001100011 &
0+
0,
b01 /
b00000000000000000000000000000100 0
b00000000000000000000000000001000 1
b100001110000000000000000000000000000010000000000000000000000000000000000000000000000000000000000000000000000000000000000000000000000101000000000101000000000010100010011 2
b01010 <
b11 =
b1100011 @
b001 A
b000000000000000000000000000011000000000000000000000000000000100000000000000100000000010110010011 B
b00000000101000000001010001100011 E
1F
b00000000000000000000000000001010 G
b00000000000000000000000000000100 J
b00000000000000000000000000001100 K
b00000000000000000000000000000100 L
b00000000000000000000000000001100 M
b000000100000000000000000000000000000100000000000000000000000000000000000000000000000000000000000000000000000000000000000000000000000010000000000101000000001010001100011 N
b00000000000000000000000000001010 6!
b1000000000000000000000000000000000100000000000000000000000000000010100000000000000000000000000000000000000000101000000000010100010011 9!
1E!
b00000000000000000000000000001010 i!
0j!
#6
0E!
#7
b00000000000000000000000000001100 #
b00000000000000000000000000010000 $
b00000000001000000000011000010011 %
b000000000000000000000000000011000000000000000000000000000000100000000000000100000000010110010011 &
1+
1,
b11 /
b00000000000000000000000000000001 0
b00000000000000000000000000000010 1
b000000100000000000000000000000000000100000000000000000000000000000000000000000000000000000000000000000000000000000000000000000000000010000000000101000000001010001100011 2
b0110 8
b00001 :
b01 =
b001 ?
b0010011 @
b000 A
b000000000000000000000000000100000000000000000000000000000000110000000000001000000000011000010011 B
b00000000000100000000010110010011 E
0F
b00000000000000000000000000000100 G
b00000000000000000000000000001000 J
b00000000000000000000000000010000 K
b00000000000000000000000000001000 L
b00000000000000000000000000001010 M
b100001110000000000000000000000000000110000000000000000000000000000000000000000000000000000000000000000000000000000000000000000000000000100000000000100000000010110010011 N
b10 x
b1000000000000000000000000000000000100000000000000000000000000000010100000000000000000000000000000000000000000101000000000010100010011 y
b01010 %!
1'!
b10000000000000000000000000000000100000000000000000000000000000010100000000000000000000000000000000000000000101000000000010100010011 /!
b00000000000000000000000000001010 5!
b00000000000000000000000000001010 8!
b0000000000000000000000000000000001000111111111111111111111111111101100000000000000000000000000000101000000000101000000001010001100011 9!
1E!
b11111111111111111111111111110110 i!
#8
0E!
#9
b00000000000000000000000000010000 #
b00000000000000000000000000010100 $
b00000000000000000000000000000000 %
b000000000000000000000000000100000000000000000000000000000000110000000000001000000000011000010011 &
b00000000000000000000000000000010 0
b00000000000000000000000000000100 1
b100001110000000000000000000000000000110000000000000000000000000000000000000000000000000000000000000000000000000000000000000000000000000100000000000100000000010110010011 2
b0010 8
b00010 :
b00001 <
b11 =
b000 ?
b000000000000000000000000000101000000000000000000000000000001000000000000000000000000000000000000 B
b00000000001000000000011000010011 E
1F
b00000000000000000000000000000001 G
b00000000000000000000000000001100 J
b00000000000000000000000000010100 K
b00000000000000000000000000001100 L
b00000000000000000000000000010000 M
b100001110000000000000000000000000001000000000000000000000000000000000000000000000000000000000000100000000000000000000000000000000000001000000000001000000000011000010011 N
b00000000000000000000000000001010 t
b00 x
b0000000000000000000000000000000001000111111111111111111111111111101100000000000000000000000000000101000000000101000000001010001100011 y
b10000000000000000000000000000000100000000000000000000000000000010100000000000000000000000000000000000000000101000000000010100010011 ~
b01000 %!
b01010 &!
0'!
1(!
b00000000000000000000000000001010 *!
b00000000000000000000000000001010 ,!
b00000000000000000000000000000100 .!
b00000000000000000000000000000001000111111111111111111111111111101100000000000000000000000000000000000000000101000000001010001100011 /!
b00000000000000000000000000000000 5!
b00000000000000000000000000000001 6!
b11111111111111111111111111110110 8!
b1000000000000000000000000000000001100000000000000000000000000000000010000000000000000000000000000000000000000000100000000010110010011 9!
0>!
1?!
b00000000000000000000000010000000 C!
1E!
b00000000000000000000000010000000 h!
b00000000000000000000000000000001 i!
#10
b00000000000000000000000000001010 ^
0E!
b00000000000000000000000000001010 Q!
#11
b00000000000000000000000000010100 #
b00000000000000000000000000011000 $
b000000000000000000000000000101000000000000000000000000000001000000000000000000000000000000000000 &
0+
0,
b00 /
b00000000000000000000000000000000 0
b00000000000000000000000000000000 1
b100001110000000000000000000000000001000000000000000000000000000000000000000000000000000000000000100000000000000000000000000000000000001000000000001000000000011000010011 2
b00000 :
b00010 <
b0000000 @
b000000000000000000000000000110000000000000000000000000000001010000000000000000000000000000000000 B
b00000000000000000000000000000000 E
b00000000000000000000000000000010 G
b00000000000000000000000010000000 I
b00000000000000000000000000010000 J
b00000000000000000000000000011000 K
b00000000000000000000000000010000 L
b000000000000000000000000000000000001010000000000000000000000000000000000000000000000000000000000000000000000000000000000000000000000000000000000000000000000000000000000 N
b11111111111111111111111111110110 t
b1000000000000000000000000000000001100000000000000000000000000000000010000000000000000000000000000000000000000000100000000010110010011 y
b00000000000000000000000000000001000111111111111111111111111111101100000000000000000000000000000000000000000101000000001010001100011 ~
b01011 %!
b01000 &!
1'!
0(!
b00000000000000000000000000000000 *!
b11111111111111111111111111110110 ,!
b00000000000000000000000000001000 .!
b10000000000000000000000000000001100000000000000000000000000000000010000000000000000000000000000000000000000000100000000010110010011 /!
b00000000000000000000000010000000 5!
b00000000000000000000000000000010 6!
b00000000000000000000000000000001 8!
b1000000000000000000000000000000010000000000000000000000000000000000100000000000000000000000001000000000000000001000000000011000010011 9!
1>!
0?!
b00000000000000000000000000000000 C!
1E!
b00000000000000000000000000000000 h!
b00000000000000000000000000000010 i!
#12
0E!
#13
b00000000000000000000000000011000 #
b00000000000000000000000000011100 $
b000000000000000000000000000110000000000000000000000000000001010000000000000000000000000000000000 &
b000000000000000000000000000000000001010000000000000000000000000000000000000000000000000000000000000000000000000000000000000000000000000000000000000000000000000000000000 2
b00000 <
b00 =
b000000000000000000000000000111000000000000000000000000000001100000000000000000000000000000000000 B
0F
b00000000000000000000000000000000 G
b00000000000000000000000000000000 I
b00000000000000000000000000010100 J
b00000000000000000000000000011100 K
b00000000000000000000000000010100 L
b00000000000000000000000000010100 M
b000000000000000000000000000000000001100000000000000000000000000000000000000000000000000000000000000000000000000000000000000000000000000000000000000000000000000000000000 N
b00000000000000000000000000000001 t
b1000000000000000000000000000000010000000000000000000000000000000000100000000000000000000000001000000000000000001000000000011000010011 y
b10000000000000000000000000000001100000000000000000000000000000000010000000000000000000000000000000000000000000100000000010110010011 ~
b01100 %!
b01011 &!
1(!
b00000000000000000000000010000000 *!
b00000000000000000000000000000001 ,!
b00000000000000000000000000001100 .!
b10000000000000000000000000000010000000000000000000000000000000000100000000000000000000000000000000000000000001000000000011000010011 /!
b00000000000000000000000000000000 5!
b00000000000000000000000000000000 6!
b00000000000000000000000000000010 8!
b0000000000000000000000000000000010100000000000000000000000000000000000000000000000000000000000000000000000000000000000000000000000000 9!
1E!
b00000000000000000000000000000000 i!
1j!
#14
b00000000000000000000000000000001 _
0E!
b00000000000000000000000000000001 R!
#15
b00000000000000000000000000011100 #
b00000000000000000000000000100000 $
b000000000000000000000000000111000000000000000000000000000001100000000000000000000000000000000000 &
b000000000000000000000000000000000001100000000000000000000000000000000000000000000000000000000000000000000000000000000000000000000000000000000000000000000000000000000000 2
b000000000000000000000000001000000000000000000000000000000001110000000000000000000000000000000000 B
b00000000000000000000000000011000 J
b00000000000000000000000000100000 K
b00000000000000000000000000011000 L
b00000000000000000000000000011000 M
b000000000000000000000000000000000001110000000000000000000000000000000000000000000000000000000000000000000000000000000000000000000000000000000000000000000000000000000000 N
b00000000000000000000000000000010 t
b0000000000000000000000000000000010100000000000000000000000000000000000000000000000000000000000000000000000000000000000000000000000000 y
b10000000000000000000000000000010000000000000000000000000000000000100000000000000000000000000000000000000000001000000000011000010011 ~
b00000 %!
b01100 &!
0'!
b00000000000000000000000000000000 *!
b00000000000000000000000000000010 ,!
b00000000000000000000000000010000 .!
b00000000000000000000000000000010100000000000000000000000000000000000000000000000000000000000000000000000000000000000000000000000000 /!
b00000000000000000000000000000000 8!
b0000000000000000000000000000000011000000000000000000000000000000000000000000000000000000000000000000000000000000000000000000000000000 9!
1E!
#16
b00000000000000000000000000000010 `
0E!
b00000000000000000000000000000010 S!
#17
b00000000000000000000000000100000 #
b00000000000000000000000000100100 $
b000000000000000000000000001000000000000000000000000000000001110000000000000000000000000000000000 &
b000000000000000000000000000000000001110000000000000000000000000000000000000000000000000000000000000000000000000000000000000000000000000000000000000000000000000000000000 2
b000000000000000000000000001001000000000000000000000000000010000000000000000000000000000000000000 B
b00000000000000000000000000011100 J
b00000000000000000000000000100100 K
b00000000000000000000000000011100 L
b00000000000000000000000000011100 M
b000000000000000000000000000000000010000000000000000000000000000000000000000000000000000000000000000000000000000000000000000000000000000000000000000000000000000000000000 N
b00000000000000000000000000000000 t
b0000000000000000000000000000000011000000000000000000000000000000000000000000000000000000000000000000000000000000000000000000000000000 y
b00000000000000000000000000000010100000000000000000000000000000000000000000000000000000000000000000000000000000000000000000000000000 ~
b00000 &!
0(!
b00000000000000000000000000000000 ,!
b00000000000000000000000000010100 .!
b00000000000000000000000000000011000000000000000000000000000000000000000000000000000000000000000000000000000000000000000000000000000 /!
b0000000000000000000000000000000011100000000000000000000000000000000000000000000000000000000000000000000000000000000000000000000000000 9!
1E!
#18
0E!
#19
b00000000000000000000000000100100 #
b00000000000000000000000000101000 $
b000000000000000000000000001001000000000000000000000000000010000000000000000000000000000000000000 &
b000000000000000000000000000000000010000000000000000000000000000000000000000000000000000000000000000000000000000000000000000000000000000000000000000000000000000000000000 2
b000000000000000000000000001010000000000000000000000000000010010000000000000000000000000000000000 B
b00000000000000000000000000100000 J
b00000000000000000000000000101000 K
b00000000000000000000000000100000 L
b00000000000000000000000000100000 M
b000000000000000000000000000000000010010000000000000000000000000000000000000000000000000000000000000000000000000000000000000000000000000000000000000000000000000000000000 N
b0000000000000000000000000000000011100000000000000000000000000000000000000000000000000000000000000000000000000000000000000000000000000 y
b00000000000000000000000000000011000000000000000000000000000000000000000000000000000000000000000000000000000000000000000000000000000 ~
b00000000000000000000000000011000 .!
b00000000000000000000000000000011100000000000000000000000000000000000000000000000000000000000000000000000000000000000000000000000000 /!
b0000000000000000000000000000000100000000000000000000000000000000000000000000000000000000000000000000000000000000000000000000000000000 9!
1E!
#20
0E!
#21
b00000000000000000000000000101000 #
b00000000000000000000000000101100 $
b000000000000000000000000001010000000000000000000000000000010010000000000000000000000000000000000 &
b000000000000000000000000000000000010010000000000000000000000000000000000000000000000000000000000000000000000000000000000000000000000000000000000000000000000000000000000 2
b000000000000000000000000001011000000000000000000000000000010100000000000000000000000000000000000 B
b00000000000000000000000000100100 J
b00000000000000000000000000101100 K
b00000000000000000000000000100100 L
b00000000000000000000000000100100 M
b000000000000000000000000000000000010100000000000000000000000000000000000000000000000000000000000000000000000000000000000000000000000000000000000000000000000000000000000 N
b0000000000000000000000000000000100000000000000000000000000000000000000000000000000000000000000000000000000000000000000000000000000000 y
b00000000000000000000000000000011100000000000000000000000000000000000000000000000000000000000000000000000000000000000000000000000000 ~
b00000000000000000000000000011100 .!
b00000000000000000000000000000100000000000000000000000000000000000000000000000000000000000000000000000000000000000000000000000000000 /!
b0000000000000000000000000000000100100000000000000000000000000000000000000000000000000000000000000000000000000000000000000000000000000 9!
1E!
#22
0E!
