Lab3/lab3_template/waveform.vcd
$version Generated by VerilatedVcd $end
$timescale 1s $end

 $scope module TOP $end
  $var wire  1 7! clk $end
  $var wire 32 9! r[0] [31:0] $end
  $var wire 32 C! r[10] [31:0] $end
  $var wire 32 D! r[11] [31:0] $end
  $var wire 32 E! r[12] [31:0] $end
  $var wire 32 F! r[13] [31:0] $end
  $var wire 32 G! r[14] [31:0] $end
  $var wire 32 H! r[15] [31:0] $end
  $var wire 32 I! r[16] [31:0] $end
  $var wire 32 J! r[17] [31:0] $end
  $var wire 32 K! r[18] [31:0] $end
  $var wire 32 L! r[19] [31:0] $end
  $var wire 32 :! r[1] [31:0] $end
  $var wire 32 M! r[20] [31:0] $end
  $var wire 32 N! r[21] [31:0] $end
  $var wire 32 O! r[22] [31:0] $end
  $var wire 32 P! r[23] [31:0] $end
  $var wire 32 Q! r[24] [31:0] $end
  $var wire 32 R! r[25] [31:0] $end
  $var wire 32 S! r[26] [31:0] $end
  $var wire 32 T! r[27] [31:0] $end
  $var wire 32 U! r[28] [31:0] $end
  $var wire 32 V! r[29] [31:0] $end
  $var wire 32 ;! r[2] [31:0] $end
  $var wire 32 W! r[30] [31:0] $end
  $var wire 32 X! r[31] [31:0] $end
  $var wire 32 <! r[3] [31:0] $end
  $var wire 32 =! r[4] [31:0] $end
  $var wire 32 >! r[5] [31:0] $end
  $var wire 32 ?! r[6] [31:0] $end
  $var wire 32 @! r[7] [31:0] $end
  $var wire 32 A! r[8] [31:0] $end
  $var wire 32 B! r[9] [31:0] $end
  $var wire  1 8! start $end
  $scope module PipelineCPU $end
   $var wire  4 [ ALUCtl [3:0] $end
   $var wire  2 N ALUOp [1:0] $end
   $var wire 32 S ALUOut [31:0] $end
   $var wire  1 K ALUSrc $end
   $var wire 32 Z ALUSrcB [31:0] $end
   $var wire  1 2! BrEq $end
   $var wire  1 3! BrLT $end
   $var wire 133 ] EX_MEM [132:0] $end
   $var wire 168 T ID_EX [167:0] $end
   $var wire 96 F IF_ID [95:0] $end
   $var wire 131 b MEM_WB [130:0] $end
   $var wire 32 D PCPlus4 [31:0] $end
   $var wire  2 4! PCSel [1:0] $end
   $var wire 32 Q branchAddr [31:0] $end
   $var wire 32 R branchTarget [31:0] $end
   $var wire  1 7! clk $end
   $var wire 32 P imm [31:0] $end
   $var wire 32 E inst [31:0] $end
   $var wire 32 Y! memData [31:0] $end
   $var wire  1 I memRead $end
   $var wire  1 J memWrite $end
   $var wire  2 M memtoReg [1:0] $end
   $var wire 32 +! pc_i [31:0] $end
   $var wire 32 C pc_o [31:0] $end
   $var wire 32 9! r[0] [31:0] $end
   $var wire 32 C! r[10] [31:0] $end
   $var wire 32 D! r[11] [31:0] $end
   $var wire 32 E! r[12] [31:0] $end
   $var wire 32 F! r[13] [31:0] $end
   $var wire 32 G! r[14] [31:0] $end
   $var wire 32 H! r[15] [31:0] $end
   $var wire 32 I! r[16] [31:0] $end
   $var wire 32 J! r[17] [31:0] $end
   $var wire 32 K! r[18] [31:0] $end
   $var wire 32 L! r[19] [31:0] $end
   $var wire 32 :! r[1] [31:0] $end
   $var wire 32 M! r[20] [31:0] $end
   $var wire 32 N! r[21] [31:0] $end
   $var wire 32 O! r[22] [31:0] $end
   $var wire 32 P! r[23] [31:0] $end
   $var wire 32 Q! r[24] [31:0] $end
   $var wire 32 R! r[25] [31:0] $end
   $var wire 32 S! r[26] [31:0] $end
   $var wire 32 T! r[27] [31:0] $end
   $var wire 32 U! r[28] [31:0] $end
   $var wire 32 V! r[29] [31:0] $end
   $var wire 32 ;! r[2] [31:0] $end
   $var wire 32 W! r[30] [31:0] $end
   $var wire 32 X! r[31] [31:0] $end
   $var wire 32 <! r[3] [31:0] $end
   $var wire 32 =! r[4] [31:0] $end
   $var wire 32 >! r[5] [31:0] $end
   $var wire 32 ?! r[6] [31:0] $end
   $var wire 32 @! r[7] [31:0] $end
   $var wire 32 A! r[8] [31:0] $end
   $var wire 32 B! r[9] [31:0] $end
   $var wire 32 5! readData1 [31:0] $end
   $var wire 32 6! readData2 [31:0] $end
   $var wire  1 L regWrite $end
   $var wire  1 8! start $end
   $var wire 32 O writeData [31:0] $end
   $var wire  1 \ zero $end
   $scope module m_ALU $end
    $var wire 32 g A [31:0] $end
    $var wire 32 S ALUOut [31:0] $end
    $var wire  4 [ ALUctl [3:0] $end
    $var wire 32 Z B [31:0] $end
    $var wire  1 \ zero $end
   $upscope $end
   $scope module m_ALUCtrl $end
    $var wire  4 [ ALUCtl [3:0] $end
    $var wire  2 h ALUOp [1:0] $end
    $var wire  3 j funct3 [2:0] $end
    $var wire  1 i funct7 $end
   $upscope $end
   $scope module m_Adder_1 $end
    $var wire 32 C a [31:0] $end
    $var wire 32 \! b [31:0] $end
    $var wire 32 D sum [31:0] $end
   $upscope $end
   $scope module m_Adder_2 $end
    $var wire 32 k a [31:0] $end
    $var wire 32 Q b [31:0] $end
    $var wire 32 R sum [31:0] $end
   $upscope $end
   $scope module m_BranchComp $end
    $var wire 32 5! A [31:0] $end
    $var wire 32 6! B [31:0] $end
    $var wire  1 2! BrEq $end
    $var wire  1 3! BrLT $end
   $upscope $end
   $scope module m_Control $end
    $var wire  2 N ALUOp [1:0] $end
    $var wire  1 K ALUSrc $end
    $var wire  1 2! BrEq $end
    $var wire  1 3! BrLT $end
    $var wire  2 4! PCSel [1:0] $end
    $var wire  3 m funct3 [2:0] $end
    $var wire  1 I memRead $end
    $var wire  1 J memWrite $end
    $var wire  2 M memtoReg [1:0] $end
    $var wire  7 l opcode [6:0] $end
    $var wire  1 L regWrite $end
   $upscope $end
   $scope module m_DataMemory $end
    $var wire 32 [! address [31:0] $end
    $var wire  1 7! clk $end
    $var wire  1 Z! memRead $end
    $var wire  1 n memWrite $end
    $var wire 32 Y! readData [31:0] $end
    $var wire  1 8! rst $end
    $var wire 32 o writeData [31:0] $end
   $upscope $end
   $scope module m_EX_MEM $end
    $var wire 32 ]! WIDTH [31:0] $end
    $var wire  1 7! clk $end
    $var wire 133 p data_i [132:0] $end
    $var wire 133 ] data_o [132:0] $end
    $var wire  1 8! rst $end
   $upscope $end
   $scope module m_ID_EX $end
    $var wire 32 ^! WIDTH [31:0] $end
    $var wire  1 7! clk $end
    $var wire 168 ,! data_i [167:0] $end
    $var wire 168 T data_o [167:0] $end
    $var wire  1 8! rst $end
   $upscope $end
   $scope module m_IF_ID $end
    $var wire 32 _! WIDTH [31:0] $end
    $var wire  1 7! clk $end
    $var wire 96 u data_i [95:0] $end
    $var wire 96 F data_o [95:0] $end
    $var wire  1 8! rst $end
   $upscope $end
   $scope module m_ImmGen $end
    $var wire 32 P imm [31:0] $end
    $var wire 32 x inst [31:0] $end
   $upscope $end
   $scope module m_InstMem $end
    $var wire 32 E inst [31:0] $end
    $var wire 32 C readAddr [31:0] $end
   $upscope $end
   $scope module m_MEM_WB $end
    $var wire 32 `! WIDTH [31:0] $end
    $var wire  1 7! clk $end
    $var wire 131 &! data_i [130:0] $end
    $var wire 131 b data_o [130:0] $end
    $var wire  1 8! rst $end
   $upscope $end
   $scope module m_Mux_ALU $end
    $var wire 32 Z out [31:0] $end
    $var wire 32 z s0 [31:0] $end
    $var wire 32 { s1 [31:0] $end
    $var wire  1 y sel $end
    $var wire 32 a! size [31:0] $end
   $upscope $end
   $scope module m_Mux_PC $end
    $var wire 32 +! out [31:0] $end
    $var wire 32 D s0 [31:0] $end
    $var wire 32 R s1 [31:0] $end
    $var wire 32 S s2 [31:0] $end
    $var wire  2 4! sel [1:0] $end
    $var wire 32 a! size [31:0] $end
   $upscope $end
   $scope module m_Mux_WriteData $end
    $var wire 32 O out [31:0] $end
    $var wire 32 } s0 [31:0] $end
    $var wire 32 ~ s1 [31:0] $end
    $var wire 32 !! s2 [31:0] $end
    $var wire  2 | sel [1:0] $end
    $var wire 32 a! size [31:0] $end
   $upscope $end
   $scope module m_PC $end
    $var wire  1 7! clk $end
    $var wire 32 +! pc_i [31:0] $end
    $var wire 32 C pc_o [31:0] $end
    $var wire  1 8! rst $end
   $upscope $end
   $scope module m_Register $end
    $var wire  1 7! clk $end
    $var wire 32 5! readData1 [31:0] $end
    $var wire 32 6! readData2 [31:0] $end
    $var wire  5 #! readReg1 [4:0] $end
    $var wire  5 $! readReg2 [4:0] $end
    $var wire  1 "! regWrite $end
    $var wire 32 # regs[0] [31:0] $end
    $var wire 32 - regs[10] [31:0] $end
    $var wire 32 . regs[11] [31:0] $end
    $var wire 32 / regs[12] [31:0] $end
    $var wire 32 0 regs[13] [31:0] $end
    $var wire 32 1 regs[14] [31:0] $end
    $var wire 32 2 regs[15] [31:0] $end
    $var wire 32 3 regs[16] [31:0] $end
    $var wire 32 4 regs[17] [31:0] $end
    $var wire 32 5 regs[18] [31:0] $end
    $var wire 32 6 regs[19] [31:0] $end
    $var wire 32 $ regs[1] [31:0] $end
    $var wire 32 7 regs[20] [31:0] $end
    $var wire 32 8 regs[21] [31:0] $end
    $var wire 32 9 regs[22] [31:0] $end
    $var wire 32 : regs[23] [31:0] $end
    $var wire 32 ; regs[24] [31:0] $end
    $var wire 32 < regs[25] [31:0] $end
    $var wire 32 = regs[26] [31:0] $end
    $var wire 32 > regs[27] [31:0] $end
    $var wire 32 ? regs[28] [31:0] $end
    $var wire 32 @ regs[29] [31:0] $end
    $var wire 32 % regs[2] [31:0] $end
    $var wire 32 A regs[30] [31:0] $end
    $var wire 32 B regs[31] [31:0] $end
    $var wire 32 & regs[3] [31:0] $end
    $var wire 32 ' regs[4] [31:0] $end
    $var wire 32 ( regs[5] [31:0] $end
    $var wire 32 ) regs[6] [31:0] $end
    $var wire 32 * regs[7] [31:0] $end
    $var wire 32 + regs[8] [31:0] $end
    $var wire 32 , regs[9] [31:0] $end
    $var wire  1 8! rst $end
    $var wire 32 O writeData [31:0] $end
    $var wire  5 %! writeReg [4:0] $end
   $upscope $end
   $scope module m_ShiftLeftOne $end
    $var wire 32 P i [31:0] $end
    $var wire 32 Q o [31:0] $end
   $upscope $end
  $upscope $end
 $upscope $end
$enddefinitions $end


#0
b00000000000000000000000000000000 #
b00000000000000000000000000000000 $
b00000000000000000000000000000000 %
b00000000000000000000000000000000 &
b00000000000000000000000000000000 '
b00000000000000000000000000000000 (
b00000000000000000000000000000000 )
b00000000000000000000000000000000 *
b00000000000000000000000000000000 +
b00000000000000000000000000000000 ,
b00000000000000000000000000000000 -
b00000000000000000000000000000000 .
b00000000000000000000000000000000 /
b00000000000000000000000000000000 0
b00000000000000000000000000000000 1
b00000000000000000000000000000000 2
b00000000000000000000000000000000 3
b00000000000000000000000000000000 4
b00000000000000000000000000000000 5
b00000000000000000000000000000000 6
b00000000000000000000000000000000 7
b00000000000000000000000000000000 8
b00000000000000000000000000000000 9
b00000000000000000000000000000000 :
b00000000000000000000000000000000 ;
b00000000000000000000000000000000 <
b00000000000000000000000000000000 =
b00000000000000000000000000000000 >
b00000000000000000000000000000000 ?
b00000000000000000000000000000000 @
b00000000000000000000000000000000 A
b00000000000000000000000000000000 B
b00000000000000000000000000000000 C
b00000000000000000000000000000100 D
b00000000000000000000000000010011 E
b000000000000000000000000000000000000000000000000000000000000000000000000000000000000000000000000 F
0I
0J
0K
0L
b00 M
b00 N
b00000000000000000000000000000000 O
b00000000000000000000000000000000 P
b00000000000000000000000000000000 Q
b00000000000000000000000000000000 R
b00000000000000000000000000000000 S
b000000000000000000000000000000000000000000000000000000000000000000000000000000000000000000000000000000000000000000000000000000000000000000000000000000000000000000000000 T
b00000000000000000000000000000000 Z
b0010 [
1\
b0000000000000000000000000000000000000000000000000000000000000000000000000000000000000000000000000000000000000000000000000000000000000 ]
b00000000000000000000000000000000000000000000000000000000000000000000000000000000000000000000000000000000000000000000000000000000000 b
b00000000000000000000000000000000 g
b00 h
0i
b000 j
b00000000000000000000000000000000 k
b0000000 l
b000 m
0n
b00000000000000000000000000000000 o
b0000000000000000000000000000000000000000000000000000000000000000000000000000000000000000000000000000000000000000000000000000000000000 p
b000000000000000000000000000001000000000000000000000000000000000000000000000000000000000000010011 u
b00000000000000000000000000000000 x
0y
b00000000000000000000000000000000 z
b00000000000000000000000000000000 {
b00 |
b00000000000000000000000000000000 }
b00000000000000000000000000000000 ~
b00000000000000000000000000000000 !!
0"!
b00000 #!
b00000 $!
b00000 %!
b00000000000000000000000000000000000000000000000000000000000000000000000000000000000000000000000000000000000000000000000000000000000 &!
b00000000000000000000000000000100 +!
b000000000000000000000000000000000000000000000000000000000000000000000000000000000000000000000000000000000000000000000000000000000000000000000000000000000000000000000000 ,!
12!
03!
b00 4!
b00000000000000000000000000000000 5!
b00000000000000000000000000000000 6!
07!
18!
b00000000000000000000000000000000 9!
b00000000000000000000000000000000 :!
b00000000000000000000000000000000 ;!
b00000000000000000000000000000000 <!
b00000000000000000000000000000000 =!
b00000000000000000000000000000000 >!
b00000000000000000000000000000000 ?!
b00000000000000000000000000000000 @!
b00000000000000000000000000000000 A!
b00000000000000000000000000000000 B!
b00000000000000000000000000000000 C!
b00000000000000000000000000000000 D!
b00000000000000000000000000000000 E!
b00000000000000000000000000000000 F!
b00000000000000000000000000000000 G!
b00000000000000000000000000000000 H!
b00000000000000000000000000000000 I!
b00000000000000000000000000000000 J!
b00000000000000000000000000000000 K!
b00000000000000000000000000000000 L!
b00000000000000000000000000000000 M!
b00000000000000000000000000000000 N!
b00000000000000000000000000000000 O!
b00000000000000000000000000000000 P!
b00000000000000000000000000000000 Q!
b00000000000000000000000000000000 R!
b00000000000000000000000000000000 S!
b00000000000000000000000000000000 T!
b00000000000000000000000000000000 U!
b00000000000000000000000000000000 V!
b00000000000000000000000000000000 W!
b00000000000000000000000000000000 X!
b00000000000000000000000000000000 Y!
0Z!
b00000000000000000000000000000000 [!
b00000000000000000000000000000100 \!
b00000000000000000000000010000101 ]!
b00000000000000000000000010101000 ^!
b00000000000000000000000001100000 _!
b00000000000000000000000010000011 `!
b00000000000000000000000000100000 a!
#1
b00000000000000000000000010000000 %
17!
08!
b00000000000000000000000010000000 ;!
#2
07!
18!
#3
b00000000000000000000000000000100 C
b00000000000000000000000000001000 D
b00000000100000000000010001101111 E
b000000000000000000000000000001000000000000000000000000000000000000000000000000000000000000010011 F
1K
1L
b11 N
b0010011 l
b000000000000000000000000000010000000000000000000000000000000010000000000100000000000010001101111 u
b00000000000000000000000000010011 x
b00000000000000000000000000001000 +!
b100001110000000000000000000000000000010000000000000000000000000000000000000000000000000000000000000000000000000000000000000000000000000000000000000000000000000000010011 ,!
17!
#4
07!
#5
b00000000000000000000000000001000 C
b00000000000000000000000000001100 D
b00000000000100000000010100010011 E
b000000000000000000000000000010000000000000000000000000000000010000000000100000000000010001101111 F
0K
b10 M
b00 N
b00000000000000000000000000000100 P
b00000000000000000000000000001000 Q
b00000000000000000000000000001100 R
b100001110000000000000000000000000000010000000000000000000000000000000000000000000000000000000000000000000000000000000000000000000000000000000000000000000000000000010011 T
b11 h
b00000000000000000000000000000100 k
b1101111 l
b1000000000000000000000000000000000100000000000000000000000000000000000000000000000000000000000000000000000000000000000000000000010011 p
b000000000000000000000000000011000000000000000000000000000000100000000000000100000000010100010011 u
b00000000100000000000010001101111 x
1y
b01000 $!
b00000000000000000000000000001100 +!
b110000000000000000000000000000000000100000000000000000000000000000000000000000000000000000000000000000000000000000000000000000000000010000000000100000000000010001101111 ,!
b01 4!
17!
#6
07!
#7
b00000000000000000000000000001100 C
b00000000000000000000000000010000 D
b00000000001000000000010110010011 E
b000000000000000000000000000011000000000000000000000000000000100000000000000100000000010100010011 F
1K
b00 M
b11 N
b00000000000000000000000000000001 P
b00000000000000000000000000000010 Q
b00000000000000000000000000001010 R
b110000000000000000000000000000000000100000000000000000000000000000000000000000000000000000000000000000000000000000000000000000000000010000000000100000000000010001101111 T
b1000000000000000000000000000000000100000000000000000000000000000000000000000000000000000000000000000000000000000000000000000000010011 ]
b00 h
b00000000000000000000000000001000 k
b0010011 l
b1100000000000000000000000000000001000000000000000000000000000000000000000000000000000000000000000000000000000100000000000010001101111 p
b000000000000000000000000000100000000000000000000000000000000110000000000001000000000010110010011 u
b00000000000100000000010100010011 x
0y
b00000000000000000000000000000100 {
b00001 $!
b10000000000000000000000000000000100000000000000000000000000000000000000000000000000000000000000000000000000000000000000000000010011 &!
b00000000000000000000000000010000 +!
b100001110000000000000000000000000000110000000000000000000000000000000000000000000000000000000000000000000000000000000000000000000000000100000000000100000000010100010011 ,!
b00 4!
17!
#8
07!
#9
b00000000000000000000000000010000 C
b00000000000000000000000000010100 D
b00000000000000000000000000000000 E
b000000000000000000000000000100000000000000000000000000000000110000000000001000000000010110010011 F
b00000000000000000000000000000010 P
b00000000000000000000000000000100 Q
b00000000000000000000000000010000 R
b00000000000000000000000000000001 S
b100001110000000000000000000000000000110000000000000000000000000000000000000000000000000000000000000000000000000000000000000000000000000100000000000100000000010100010011 T
b00000000000000000000000000000001 Z
0\
b1100000000000000000000000000000001000000000000000000000000000000000000000000000000000000000000000000000000000100000000000010001101111 ]
b10000000000000000000000000000000100000000000000000000000000000000000000000000000000000000000000000000000000000000000000000000010011 b
b11 h
b00000000000000000000000000001100 k
b1000000000000000000000000000000001100000000000000000000000000000000010000000000000000000000000000000000000000000100000000010100010011 p
b000000000000000000000000000101000000000000000000000000000001000000000000000000000000000000000000 u
b00000000001000000000010110010011 x
1y
b00000000000000000000000000000001 {
b00000000000000000000000000000100 !!
1"!
b00010 $!
b11000000000000000000000000000001000000000000000000000000000000000000000000000000000000000000000000000000000100000000000010001101111 &!
b00000000000000000000000000010100 +!
b100001110000000000000000000000000001000000000000000000000000000000000000000000000000000000000000100000000000000000000000000000000000001000000000001000000000010110010011 ,!
02!
13!
b00000000000000000000000010000000 6!
17!
#10
07!
#11
b00000000000000000000000000010100 C
b00000000000000000000000000011000 D
b000000000000000000000000000101000000000000000000000000000001000000000000000000000000000000000000 F
0K
0L
b00 N
b00000000000000000000000000001000 O
b00000000000000000000000000000000 P
b00000000000000000000000000000000 Q
b00000000000000000000000000000010 S
b100001110000000000000000000000000001000000000000000000000000000000000000000000000000000000000000100000000000000000000000000000000000001000000000001000000000010110010011 T
b00000000000000000000000000000010 Z
b1000000000000000000000000000000001100000000000000000000000000000000010000000000000000000000000000000000000000000100000000010100010011 ]
b11000000000000000000000000000001000000000000000000000000000000000000000000000000000000000000000000000000000100000000000010001101111 b
b00000000000000000000000000010000 k
b0000000 l
b1000000000000000000000000000000010000000000000000000000000000000000100000000000000000000000001000000000000000001000000000010110010011 p
b000000000000000000000000000110000000000000000000000000000001010000000000000000000000000000000000 u
b00000000000000000000000000000000 x
b00000000000000000000000010000000 z
b00000000000000000000000000000010 {
b10 |
b00000000000000000000000000001000 !!
b00000 $!
b01000 %!
b10000000000000000000000000000001100000000000000000000000000000000010000000000000000000000000000000000000000000100000000010100010011 &!
b00000000000000000000000000011000 +!
b000000000000000000000000000000000001010000000000000000000000000000000000000000000000000000000000000000000000000000000000000000000000000000000000000000000000000000000000 ,!
12!
03!
b00000000000000000000000000000000 6!
17!
b00000000000000000000000000000001 [!
#12
b00000000000000000000000000001000 +
07!
b00000000000000000000000000001000 A!
#13
b00000000000000000000000000011000 C
b00000000000000000000000000011100 D
b000000000000000000000000000110000000000000000000000000000001010000000000000000000000000000000000 F
b00000000000000000000000000000001 O
b00000000000000000000000000010100 R
b00000000000000000000000000000000 S
b000000000000000000000000000000000001010000000000000000000000000000000000000000000000000000000000000000000000000000000000000000000000000000000000000000000000000000000000 T
b00000000000000000000000000000000 Z
1\
b1000000000000000000000000000000010000000000000000000000000000000000100000000000000000000000001000000000000000001000000000010110010011 ]
b10000000000000000000000000000001100000000000000000000000000000000010000000000000000000000000000000000000000000100000000010100010011 b
b00 h
b00000000000000000000000000010100 k
b00000000000000000000000010000000 o
b0000000000000000000000000000000010100000000000000000000000000000000000000000000000000000000000000000000000000000000000000000000000000 p
b000000000000000000000000000111000000000000000000000000000001100000000000000000000000000000000000 u
0y
b00000000000000000000000000000000 z
b00000000000000000000000000000000 {
b00 |
b00000000000000000000000000000001 }
b00000000000000000000000000001100 !!
b01010 %!
b10000000000000000000000000000010000000000000000000000000000000000100000000000000000000000000000000000000000001000000000010110010011 &!
b00000000000000000000000000011100 +!
b000000000000000000000000000000000001100000000000000000000000000000000000000000000000000000000000000000000000000000000000000000000000000000000000000000000000000000000000 ,!
17!
b00000000000000000000000000000010 [!
#14
b00000000000000000000000000000001 -
07!
b00000000000000000000000000000001 C!
#15
b00000000000000000000000000011100 C
b00000000000000000000000000100000 D
b000000000000000000000000000111000000000000000000000000000001100000000000000000000000000000000000 F
b00000000000000000000000000000010 O
b00000000000000000000000000011000 R
b000000000000000000000000000000000001100000000000000000000000000000000000000000000000000000000000000000000000000000000000000000000000000000000000000000000000000000000000 T
b0000000000000000000000000000000010100000000000000000000000000000000000000000000000000000000000000000000000000000000000000000000000000 ]
b10000000000000000000000000000010000000000000000000000000000000000100000000000000000000000000000000000000000001000000000010110010011 b
b00000000000000000000000000011000 k
b00000000000000000000000000000000 o
b0000000000000000000000000000000011000000000000000000000000000000000000000000000000000000000000000000000000000000000000000000000000000 p
b000000000000000000000000001000000000000000000000000000000001110000000000000000000000000000000000 u
b00000000000000000000000000000010 }
b00000000000000000000000000010000 !!
b01011 %!
b00000000000000000000000000000010100000000000000000000000000000000000000000000000000000000000000000000000000000000000000000000000000 &!
b00000000000000000000000000100000 +!
b000000000000000000000000000000000001110000000000000000000000000000000000000000000000000000000000000000000000000000000000000000000000000000000000000000000000000000000000 ,!
17!
b00000000000000000000000000000000 [!
#16
b00000000000000000000000000000010 .
07!
b00000000000000000000000000000010 D!
#17
b00000000000000000000000000100000 C
b00000000000000000000000000100100 D
b000000000000000000000000001000000000000000000000000000000001110000000000000000000000000000000000 F
b00000000000000000000000000000000 O
b00000000000000000000000000011100 R
b000000000000000000000000000000000001110000000000000000000000000000000000000000000000000000000000000000000000000000000000000000000000000000000000000000000000000000000000 T
b0000000000000000000000000000000011000000000000000000000000000000000000000000000000000000000000000000000000000000000000000000000000000 ]
b00000000000000000000000000000010100000000000000000000000000000000000000000000000000000000000000000000000000000000000000000000000000 b
b00000000000000000000000000011100 k
b0000000000000000000000000000000011100000000000000000000000000000000000000000000000000000000000000000000000000000000000000000000000000 p
b000000000000000000000000001001000000000000000000000000000010000000000000000000000000000000000000 u
b00000000000000000000000000000000 }
b00000000000000000000000000010100 !!
0"!
b00000 %!
b00000000000000000000000000000011000000000000000000000000000000000000000000000000000000000000000000000000000000000000000000000000000 &!
b00000000000000000000000000100100 +!
b000000000000000000000000000000000010000000000000000000000000000000000000000000000000000000000000000000000000000000000000000000000000000000000000000000000000000000000000 ,!
17!
#18
07!
#19
b00000000000000000000000000100100 C
b00000000000000000000000000101000 D
b000000000000000000000000001001000000000000000000000000000010000000000000000000000000000000000000 F
b00000000000000000000000000100000 R
b000000000000000000000000000000000010000000000000000000000000000000000000000000000000000000000000000000000000000000000000000000000000000000000000000000000000000000000000 T
b0000000000000000000000000000000011100000000000000000000000000000000000000000000000000000000000000000000000000000000000000000000000000 ]
b00000000000000000000000000000011000000000000000000000000000000000000000000000000000000000000000000000000000000000000000000000000000 b
b00000000000000000000000000100000 k
b0000000000000000000000000000000100000000000000000000000000000000000000000000000000000000000000000000000000000000000000000000000000000 p
b000000000000000000000000001010000000000000000000000000000010010000000000000000000000000000000000 u
b00000000000000000000000000011000 !!
b00000000000000000000000000000011100000000000000000000000000000000000000000000000000000000000000000000000000000000000000000000000000 &!
b00000000000000000000000000101000 +!
b000000000000000000000000000000000010010000000000000000000000000000000000000000000000000000000000000000000000000000000000000000000000000000000000000000000000000000000000 ,!
17!
#20
07!
#21
b00000000000000000000000000101000 C
b00000000000000000000000000101100 D
b000000000000000000000000001010000000000000000000000000000010010000000000000000000000000000000000 F
b00000000000000000000000000100100 R
b000000000000000000000000000000000010010000000000000000000000000000000000000000000000000000000000000000000000000000000000000000000000000000000000000000000000000000000000 T
b0000000000000000000000000000000100000000000000000000000000000000000000000000000000000000000000000000000000000000000000000000000000000 ]
b00000000000000000000000000000011100000000000000000000000000000000000000000000000000000000000000000000000000000000000000000000000000 b
b00000000000000000000000000100100 k
b0000000000000000000000000000000100100000000000000000000000000000000000000000000000000000000000000000000000000000000000000000000000000 p
b000000000000000000000000001011000000000000000000000000000010100000000000000000000000000000000000 u
b00000000000000000000000000011100 !!
b00000000000000000000000000000100000000000000000000000000000000000000000000000000000000000000000000000000000000000000000000000000000 &!
b00000000000000000000000000101100 +!
b000000000000000000000000000000000010100000000000000000000000000000000000000000000000000000000000000000000000000000000000000000000000000000000000000000000000000000000000 ,!
17!
#22
07!
#23
b00000000000000000000000000101100 C
b00000000000000000000000000110000 D
b000000000000000000000000001011000000000000000000000000000010100000000000000000000000000000000000 F
b00000000000000000000000000101000 R
b000000000000000000000000000000000010100000000000000000000000000000000000000000000000000000000000000000000000000000000000000000000000000000000000000000000000000000000000 T
b0000000000000000000000000000000100100000000000000000000000000000000000000000000000000000000000000000000000000000000000000000000000000 ]
b00000000000000000000000000000100000000000000000000000000000000000000000000000000000000000000000000000000000000000000000000000000000 b
b00000000000000000000000000101000 k
b0000000000000000000000000000000101000000000000000000000000000000000000000000000000000000000000000000000000000000000000000000000000000 p
b000000000000000000000000001100000000000000000000000000000010110000000000000000000000000000000000 u
b00000000000000000000000000100000 !!
b00000000000000000000000000000100100000000000000000000000000000000000000000000000000000000000000000000000000000000000000000000000000 &!
b00000000000000000000000000110000 +!
b000000000000000000000000000000000010110000000000000000000000000000000000000000000000000000000000000000000000000000000000000000000000000000000000000000000000000000000000 ,!
17!
#24
07!
#25
b00000000000000000000000000110000 C
b00000000000000000000000000110100 D
b000000000000000000000000001100000000000000000000000000000010110000000000000000000000000000000000 F
b00000000000000000000000000101100 R
b000000000000000000000000000000000010110000000000000000000000000000000000000000000000000000000000000000000000000000000000000000000000000000000000000000000000000000000000 T
b0000000000000000000000000000000101000000000000000000000000000000000000000000000000000000000000000000000000000000000000000000000000000 ]
b00000000000000000000000000000100100000000000000000000000000000000000000000000000000000000000000000000000000000000000000000000000000 b
b00000000000000000000000000101100 k
b0000000000000000000000000000000101100000000000000000000000000000000000000000000000000000000000000000000000000000000000000000000000000 p
b000000000000000000000000001101000000000000000000000000000011000000000000000000000000000000000000 u
b00000000000000000000000000100100 !!
b00000000000000000000000000000101000000000000000000000000000000000000000000000000000000000000000000000000000000000000000000000000000 &!
b00000000000000000000000000110100 +!
b000000000000000000000000000000000011000000000000000000000000000000000000000000000000000000000000000000000000000000000000000000000000000000000000000000000000000000000000 ,!
17!
#26
07!
#27
b00000000000000000000000000110100 C
b00000000000000000000000000111000 D
b000000000000000000000000001101000000000000000000000000000011000000000000000000000000000000000000 F
b00000000000000000000000000110000 R
b000000000000000000000000000000000011000000000000000000000000000000000000000000000000000000000000000000000000000000000000000000000000000000000000000000000000000000000000 T
b0000000000000000000000000000000101100000000000000000000000000000000000000000000000000000000000000000000000000000000000000000000000000 ]
b00000000000000000000000000000101000000000000000000000000000000000000000000000000000000000000000000000000000000000000000000000000000 b
b00000000000000000000000000110000 k
b0000000000000000000000000000000110000000000000000000000000000000000000000000000000000000000000000000000000000000000000000000000000000 p
b000000000000000000000000001110000000000000000000000000000011010000000000000000000000000000000000 u
b00000000000000000000000000101000 !!
b00000000000000000000000000000101100000000000000000000000000000000000000000000000000000000000000000000000000000000000000000000000000 &!
b00000000000000000000000000111000 +!
b000000000000000000000000000000000011010000000000000000000000000000000000000000000000000000000000000000000000000000000000000000000000000000000000000000000000000000000000 ,!
17!
#28
07!
#29
b00000000000000000000000000111000 C
b00000000000000000000000000111100 D
b000000000000000000000000001110000000000000000000000000000011010000000000000000000000000000000000 F
b00000000000000000000000000110100 R
b000000000000000000000000000000000011010000000000000000000000000000000000000000000000000000000000000000000000000000000000000000000000000000000000000000000000000000000000 T
b0000000000000000000000000000000110000000000000000000000000000000000000000000000000000000000000000000000000000000000000000000000000000 ]
b00000000000000000000000000000101100000000000000000000000000000000000000000000000000000000000000000000000000000000000000000000000000 b
b00000000000000000000000000110100 k
b0000000000000000000000000000000110100000000000000000000000000000000000000000000000000000000000000000000000000000000000000000000000000 p
b000000000000000000000000001111000000000000000000000000000011100000000000000000000000000000000000 u
b00000000000000000000000000101100 !!
b00000000000000000000000000000110000000000000000000000000000000000000000000000000000000000000000000000000000000000000000000000000000 &!
b00000000000000000000000000111100 +!
b000000000000000000000000000000000011100000000000000000000000000000000000000000000000000000000000000000000000000000000000000000000000000000000000000000000000000000000000 ,!
17!
#30
07!
#31
b00000000000000000000000000111100 C
b00000000000000000000000001000000 D
b000000000000000000000000001111000000000000000000000000000011100000000000000000000000000000000000 F
b00000000000000000000000000111000 R
b000000000000000000000000000000000011100000000000000000000000000000000000000000000000000000000000000000000000000000000000000000000000000000000000000000000000000000000000 T
b0000000000000000000000000000000110100000000000000000000000000000000000000000000000000000000000000000000000000000000000000000000000000 ]
b00000000000000000000000000000110000000000000000000000000000000000000000000000000000000000000000000000000000000000000000000000000000 b
b00000000000000000000000000111000 k
b0000000000000000000000000000000111000000000000000000000000000000000000000000000000000000000000000000000000000000000000000000000000000 p
b000000000000000000000000010000000000000000000000000000000011110000000000000000000000000000000000 u
b00000000000000000000000000110000 !!
b00000000000000000000000000000110100000000000000000000000000000000000000000000000000000000000000000000000000000000000000000000000000 &!
b00000000000000000000000001000000 +!
b000000000000000000000000000000000011110000000000000000000000000000000000000000000000000000000000000000000000000000000000000000000000000000000000000000000000000000000000 ,!
17!
#32
07!
